[gd_resource type="ArrayMesh" format=2]

[resource]
surfaces/0 = {
"aabb": AABB( -1, -1, -1, 2, 2, 2 ),
"array_data": PoolByteArray( 80, 150, 6, 191, 0, 0, 0, 0, 64, 196, 89, 63, 59, 17, 255, 190, 120, 173, 159, 61, 135, 176, 90, 63, 164, 38, 222, 190, 142, 16, 133, 62, 215, 215, 92, 63, 9, 66, 236, 190, 96, 74, 58, 62, 144, 235, 91, 63, 185, 122, 197, 190, 96, 74, 58, 62, 145, 119, 100, 63, 150, 233, 139, 190, 0, 0, 0, 0, 151, 65, 118, 63, 129, 149, 164, 190, 120, 173, 159, 61, 221, 161, 110, 63, 230, 176, 178, 190, 0, 0, 0, 0, 150, 181, 109, 63, 80, 101, 230, 190, 0, 0, 0, 0, 64, 80, 98, 63, 121, 55, 158, 190, 0, 0, 0, 63, 189, 27, 79, 63, 157, 180, 135, 190, 126, 147, 219, 62, 89, 4, 90, 63, 224, 91, 38, 190, 81, 150, 134, 62, 113, 120, 115, 63, 153, 97, 83, 190, 210, 2, 171, 62, 213, 143, 104, 63, 230, 189, 121, 190, 99, 33, 134, 62, 169, 174, 108, 63, 161, 117, 180, 190, 124, 133, 133, 62, 159, 161, 99, 63, 126, 248, 202, 190, 253, 241, 169, 62, 2, 185, 88, 63, 160, 101, 177, 190, 145, 30, 219, 62, 146, 58, 83, 63, 0, 0, 0, 0, 0, 0, 0, 0, 0, 0, 128, 63, 27, 229, 167, 189, 0, 0, 0, 0, 173, 19, 125, 63, 158, 224, 67, 190, 0, 0, 0, 0, 234, 45, 121, 63, 252, 200, 117, 190, 46, 129, 161, 61, 165, 107, 117, 63, 16, 102, 72, 190, 11, 108, 60, 62, 99, 78, 116, 63, 6, 231, 232, 189, 11, 108, 60, 62, 182, 58, 119, 63, 116, 161, 71, 189, 46, 129, 161, 61, 187, 61, 124, 63, 0, 0, 0, 0, 64, 196, 89, 63, 80, 150, 6, 63, 83, 95, 69, 61, 146, 90, 78, 63, 76, 126, 19, 63, 26, 122, 36, 62, 81, 185, 51, 63, 153, 155, 49, 63, 138, 68, 230, 61, 255, 34, 63, 63, 157, 179, 36, 63, 225, 148, 131, 61, 81, 185, 51, 63, 153, 155, 49, 63, 26, 122, 36, 190, 81, 185, 51, 63, 153, 155, 49, 63, 225, 148, 131, 189, 81, 185, 51, 63, 153, 155, 49, 63, 138, 68, 230, 189, 255, 34, 63, 63, 157, 179, 36, 63, 83, 95, 69, 189, 146, 90, 78, 63, 76, 126, 19, 63, 121, 55, 158, 62, 0, 0, 0, 63, 189, 27, 79, 63, 220, 128, 93, 62, 229, 249, 1, 63, 75, 78, 82, 63, 0, 0, 0, 0, 80, 150, 6, 63, 64, 196, 89, 63, 43, 220, 189, 61, 107, 156, 4, 63, 178, 145, 86, 63, 83, 95, 69, 61, 208, 32, 20, 63, 14, 184, 77, 63, 138, 68, 230, 61, 209, 46, 38, 63, 203, 167, 61, 63, 91, 16, 82, 62, 236, 52, 36, 63, 61, 117, 58, 63, 88, 108, 135, 62, 101, 132, 15, 63, 25, 66, 70, 63, 88, 108, 135, 190, 101, 132, 15, 63, 25, 66, 70, 63, 91, 16, 82, 190, 236, 52, 36, 63, 61, 117, 58, 63, 138, 68, 230, 189, 209, 46, 38, 63, 203, 167, 61, 63, 83, 95, 69, 189, 208, 32, 20, 63, 14, 184, 77, 63, 43, 220, 189, 189, 107, 156, 4, 63, 178, 145, 86, 63, 220, 128, 93, 190, 229, 249, 1, 63, 75, 78, 82, 63, 80, 150, 6, 63, 0, 0, 0, 0, 64, 196, 89, 63, 80, 101, 230, 62, 0, 0, 0, 0, 64, 80, 98, 63, 150, 233, 139, 62, 0, 0, 0, 0, 151, 65, 118, 63, 230, 176, 178, 62, 0, 0, 0, 0, 150, 181, 109, 63, 129, 149, 164, 62, 120, 173, 159, 61, 221, 161, 110, 63, 164, 38, 222, 62, 142, 16, 133, 62, 215, 215, 92, 63, 185, 122, 197, 62, 96, 74, 58, 62, 145, 119, 100, 63, 9, 66, 236, 62, 96, 74, 58, 62, 144, 235, 91, 63, 59, 17, 255, 62, 120, 173, 159, 61, 135, 176, 90, 63, 116, 161, 71, 61, 46, 129, 161, 61, 187, 61, 124, 63, 224, 91, 38, 62, 81, 150, 134, 62, 113, 120, 115, 63, 6, 231, 232, 61, 11, 108, 60, 62, 182, 58, 119, 63, 16, 102, 72, 62, 11, 108, 60, 62, 99, 78, 116, 63, 252, 200, 117, 62, 46, 129, 161, 61, 165, 107, 117, 63, 158, 224, 67, 62, 0, 0, 0, 0, 234, 45, 121, 63, 27, 229, 167, 61, 0, 0, 0, 0, 173, 19, 125, 63, 160, 101, 177, 62, 145, 30, 219, 62, 146, 58, 83, 63, 126, 248, 202, 62, 253, 241, 169, 62, 2, 185, 88, 63, 161, 117, 180, 62, 124, 133, 133, 62, 159, 161, 99, 63, 230, 189, 121, 62, 99, 33, 134, 62, 169, 174, 108, 63, 153, 97, 83, 62, 210, 2, 171, 62, 213, 143, 104, 63, 157, 180, 135, 62, 126, 147, 219, 62, 89, 4, 90, 63, 116, 161, 71, 189, 85, 204, 228, 62, 79, 122, 97, 63, 6, 231, 232, 189, 156, 246, 174, 62, 98, 194, 107, 63, 6, 231, 232, 61, 156, 246, 174, 62, 98, 194, 107, 63, 116, 161, 71, 61, 85, 204, 228, 62, 79, 122, 97, 63, 76, 22, 133, 189, 81, 150, 134, 62, 113, 120, 115, 63, 76, 22, 133, 61, 81, 150, 134, 62, 113, 120, 115, 63, 76, 126, 19, 191, 83, 95, 69, 61, 146, 90, 78, 63, 153, 155, 49, 191, 26, 122, 36, 62, 81, 185, 51, 63, 157, 179, 36, 191, 138, 68, 230, 61, 255, 34, 63, 63, 234, 165, 29, 191, 1, 249, 66, 62, 70, 15, 64, 63, 1, 9, 3, 191, 53, 162, 107, 62, 226, 129, 80, 63, 189, 27, 79, 191, 121, 55, 158, 62, 0, 0, 0, 63, 37, 30, 62, 191, 232, 20, 176, 62, 252, 115, 14, 63, 25, 121, 22, 191, 64, 196, 217, 62, 72, 45, 48, 63, 177, 118, 39, 191, 209, 230, 199, 62, 76, 185, 33, 63, 12, 157, 30, 191, 176, 27, 177, 62, 177, 61, 49, 63, 166, 119, 41, 191, 57, 203, 117, 62, 232, 168, 50, 63, 61, 117, 58, 191, 91, 16, 82, 62, 236, 52, 36, 63, 25, 66, 70, 191, 88, 108, 135, 62, 101, 132, 15, 63, 28, 202, 245, 190, 170, 121, 158, 62, 121, 113, 79, 63, 93, 167, 10, 191, 36, 91, 192, 62, 166, 147, 61, 63, 74, 16, 1, 191, 147, 60, 229, 62, 210, 116, 57, 63, 23, 9, 201, 190, 173, 135, 244, 62, 52, 212, 69, 63, 64, 196, 89, 191, 80, 150, 6, 63, 0, 0, 0, 0, 146, 90, 78, 191, 76, 126, 19, 63, 84, 95, 69, 61, 82, 185, 51, 191, 153, 155, 49, 63, 27, 122, 36, 62, 0, 35, 63, 191, 157, 179, 36, 63, 140, 68, 230, 61, 71, 15, 64, 191, 234, 165, 29, 63, 2, 249, 66, 62, 215, 215, 92, 191, 164, 38, 222, 62, 142, 16, 133, 62, 226, 129, 80, 191, 1, 9, 3, 63, 53, 162, 107, 62, 144, 235, 91, 191, 9, 66, 236, 62, 96, 74, 58, 62, 135, 176, 90, 191, 59, 17, 255, 62, 120, 173, 159, 61, 0, 0, 0, 191, 189, 27, 79, 63, 121, 55, 158, 62, 252, 115, 14, 191, 37, 30, 62, 63, 232, 20, 176, 62, 72, 45, 48, 191, 25, 121, 22, 63, 64, 196, 217, 62, 76, 185, 33, 191, 177, 118, 39, 63, 209, 230, 199, 62, 177, 61, 49, 191, 12, 157, 30, 63, 177, 27, 177, 62, 233, 168, 50, 191, 166, 119, 41, 63, 57, 203, 117, 62, 237, 52, 36, 191, 61, 117, 58, 63, 92, 16, 82, 62, 101, 132, 15, 191, 25, 66, 70, 63, 89, 108, 135, 62, 146, 58, 83, 191, 160, 101, 177, 62, 145, 30, 219, 62, 2, 185, 88, 191, 126, 248, 202, 62, 253, 241, 169, 62, 121, 113, 79, 191, 28, 202, 245, 62, 170, 121, 158, 62, 166, 147, 61, 191, 93, 167, 10, 63, 36, 91, 192, 62, 210, 116, 57, 191, 74, 16, 1, 63, 147, 60, 229, 62, 52, 212, 69, 191, 23, 9, 201, 62, 173, 135, 244, 62, 1, 249, 66, 190, 70, 15, 64, 63, 234, 165, 29, 63, 142, 16, 133, 190, 215, 215, 92, 63, 164, 38, 222, 62, 53, 162, 107, 190, 226, 129, 80, 63, 1, 9, 3, 63, 96, 74, 58, 190, 144, 235, 91, 63, 9, 66, 236, 62, 120, 173, 159, 189, 135, 176, 90, 63, 59, 17, 255, 62, 232, 20, 176, 190, 252, 115, 14, 63, 37, 30, 62, 63, 64, 196, 217, 190, 72, 45, 48, 63, 25, 121, 22, 63, 209, 230, 199, 190, 76, 185, 33, 63, 177, 118, 39, 63, 176, 27, 177, 190, 177, 61, 49, 63, 12, 157, 30, 63, 57, 203, 117, 190, 232, 168, 50, 63, 166, 119, 41, 63, 145, 30, 219, 190, 146, 58, 83, 63, 160, 101, 177, 62, 253, 241, 169, 190, 2, 185, 88, 63, 126, 248, 202, 62, 170, 121, 158, 190, 121, 113, 79, 63, 28, 202, 245, 62, 36, 91, 192, 190, 166, 147, 61, 63, 93, 167, 10, 63, 147, 60, 229, 190, 210, 116, 57, 63, 74, 16, 1, 63, 173, 135, 244, 190, 52, 212, 69, 63, 23, 9, 201, 62, 58, 119, 40, 191, 1, 255, 9, 63, 70, 18, 1, 63, 39, 47, 30, 191, 111, 184, 242, 62, 34, 253, 27, 63, 70, 18, 1, 191, 58, 119, 40, 63, 1, 255, 9, 63, 34, 253, 27, 191, 39, 47, 30, 63, 111, 184, 242, 62, 1, 255, 9, 191, 70, 18, 1, 63, 58, 119, 40, 63, 111, 184, 242, 190, 34, 253, 27, 63, 39, 47, 30, 63, 146, 90, 78, 191, 76, 126, 19, 63, 84, 95, 69, 189, 82, 185, 51, 191, 153, 155, 49, 63, 27, 122, 36, 190, 0, 35, 63, 191, 157, 179, 36, 63, 140, 68, 230, 189, 82, 185, 51, 191, 153, 155, 49, 63, 226, 148, 131, 189, 82, 185, 51, 191, 153, 155, 49, 63, 226, 148, 131, 61, 0, 0, 0, 191, 189, 27, 79, 63, 121, 55, 158, 190, 229, 249, 1, 191, 75, 78, 82, 63, 220, 128, 93, 190, 80, 150, 6, 191, 64, 196, 89, 63, 0, 0, 0, 0, 107, 156, 4, 191, 178, 145, 86, 63, 43, 220, 189, 189, 209, 32, 20, 191, 14, 184, 77, 63, 84, 95, 69, 189, 209, 46, 38, 191, 203, 167, 61, 63, 140, 68, 230, 189, 237, 52, 36, 191, 61, 117, 58, 63, 92, 16, 82, 190, 101, 132, 15, 191, 25, 66, 70, 63, 89, 108, 135, 190, 209, 46, 38, 191, 203, 167, 61, 63, 140, 68, 230, 61, 209, 32, 20, 191, 14, 184, 77, 63, 84, 95, 69, 61, 107, 156, 4, 191, 178, 145, 86, 63, 43, 220, 189, 61, 229, 249, 1, 191, 75, 78, 82, 63, 220, 128, 93, 62, 0, 0, 0, 0, 64, 196, 89, 63, 80, 150, 6, 191, 0, 0, 0, 0, 64, 80, 98, 63, 80, 101, 230, 190, 0, 0, 0, 0, 151, 65, 118, 63, 150, 233, 139, 190, 0, 0, 0, 0, 150, 181, 109, 63, 230, 176, 178, 190, 120, 173, 159, 189, 221, 161, 110, 63, 129, 149, 164, 190, 142, 16, 133, 190, 215, 215, 92, 63, 164, 38, 222, 190, 96, 74, 58, 190, 145, 119, 100, 63, 185, 122, 197, 190, 96, 74, 58, 190, 144, 235, 91, 63, 9, 66, 236, 190, 120, 173, 159, 189, 135, 176, 90, 63, 59, 17, 255, 190, 0, 0, 0, 0, 0, 0, 128, 63, 0, 0, 0, 0, 46, 129, 161, 189, 187, 61, 124, 63, 116, 161, 71, 189, 81, 150, 134, 190, 113, 120, 115, 63, 224, 91, 38, 190, 11, 108, 60, 190, 182, 58, 119, 63, 6, 231, 232, 189, 11, 108, 60, 190, 99, 78, 116, 63, 16, 102, 72, 190, 46, 129, 161, 189, 165, 107, 117, 63, 252, 200, 117, 190, 0, 0, 0, 0, 234, 45, 121, 63, 158, 224, 67, 190, 0, 0, 0, 0, 173, 19, 125, 63, 27, 229, 167, 189, 145, 30, 219, 190, 146, 58, 83, 63, 160, 101, 177, 190, 253, 241, 169, 190, 2, 185, 88, 63, 126, 248, 202, 190, 124, 133, 133, 190, 159, 161, 99, 63, 161, 117, 180, 190, 99, 33, 134, 190, 169, 174, 108, 63, 230, 189, 121, 190, 210, 2, 171, 190, 213, 143, 104, 63, 153, 97, 83, 190, 126, 147, 219, 190, 89, 4, 90, 63, 157, 180, 135, 190, 96, 74, 58, 190, 145, 119, 100, 63, 185, 122, 197, 62, 0, 0, 0, 0, 151, 65, 118, 63, 150, 233, 139, 62, 120, 173, 159, 189, 221, 161, 110, 63, 129, 149, 164, 62, 0, 0, 0, 0, 150, 181, 109, 63, 230, 176, 178, 62, 0, 0, 0, 0, 64, 80, 98, 63, 80, 101, 230, 62, 126, 147, 219, 190, 89, 4, 90, 63, 157, 180, 135, 62, 81, 150, 134, 190, 113, 120, 115, 63, 224, 91, 38, 62, 210, 2, 171, 190, 213, 143, 104, 63, 153, 97, 83, 62, 99, 33, 134, 190, 169, 174, 108, 63, 230, 189, 121, 62, 124, 133, 133, 190, 159, 161, 99, 63, 161, 117, 180, 62, 0, 0, 0, 0, 173, 19, 125, 63, 27, 229, 167, 61, 0, 0, 0, 0, 234, 45, 121, 63, 158, 224, 67, 62, 46, 129, 161, 189, 165, 107, 117, 63, 252, 200, 117, 62, 11, 108, 60, 190, 99, 78, 116, 63, 16, 102, 72, 62, 11, 108, 60, 190, 182, 58, 119, 63, 6, 231, 232, 61, 46, 129, 161, 189, 187, 61, 124, 63, 116, 161, 71, 61, 156, 246, 174, 190, 98, 194, 107, 63, 6, 231, 232, 189, 85, 204, 228, 190, 79, 122, 97, 63, 116, 161, 71, 189, 81, 150, 134, 190, 113, 120, 115, 63, 76, 22, 133, 61, 81, 150, 134, 190, 113, 120, 115, 63, 76, 22, 133, 189, 85, 204, 228, 190, 79, 122, 97, 63, 116, 161, 71, 61, 156, 246, 174, 190, 98, 194, 107, 63, 6, 231, 232, 61, 120, 173, 159, 61, 221, 161, 110, 63, 129, 149, 164, 62, 142, 16, 133, 62, 215, 215, 92, 63, 164, 38, 222, 62, 96, 74, 58, 62, 145, 119, 100, 63, 185, 122, 197, 62, 96, 74, 58, 62, 144, 235, 91, 63, 9, 66, 236, 62, 120, 173, 159, 61, 135, 176, 90, 63, 59, 17, 255, 62, 46, 129, 161, 61, 187, 61, 124, 63, 116, 161, 71, 61, 81, 150, 134, 62, 113, 120, 115, 63, 224, 91, 38, 62, 11, 108, 60, 62, 182, 58, 119, 63, 6, 231, 232, 61, 11, 108, 60, 62, 99, 78, 116, 63, 16, 102, 72, 62, 46, 129, 161, 61, 165, 107, 117, 63, 252, 200, 117, 62, 0, 0, 0, 63, 189, 27, 79, 63, 121, 55, 158, 62, 145, 30, 219, 62, 146, 58, 83, 63, 160, 101, 177, 62, 253, 241, 169, 62, 2, 185, 88, 63, 126, 248, 202, 62, 124, 133, 133, 62, 159, 161, 99, 63, 161, 117, 180, 62, 99, 33, 134, 62, 169, 174, 108, 63, 230, 189, 121, 62, 210, 2, 171, 62, 213, 143, 104, 63, 153, 97, 83, 62, 126, 147, 219, 62, 89, 4, 90, 63, 157, 180, 135, 62, 120, 173, 159, 61, 135, 176, 90, 63, 59, 17, 255, 190, 142, 16, 133, 62, 215, 215, 92, 63, 164, 38, 222, 190, 96, 74, 58, 62, 144, 235, 91, 63, 9, 66, 236, 190, 96, 74, 58, 62, 145, 119, 100, 63, 185, 122, 197, 190, 120, 173, 159, 61, 221, 161, 110, 63, 129, 149, 164, 190, 0, 0, 0, 63, 189, 27, 79, 63, 121, 55, 158, 190, 126, 147, 219, 62, 89, 4, 90, 63, 157, 180, 135, 190, 81, 150, 134, 62, 113, 120, 115, 63, 224, 91, 38, 190, 210, 2, 171, 62, 213, 143, 104, 63, 153, 97, 83, 190, 99, 33, 134, 62, 169, 174, 108, 63, 230, 189, 121, 190, 124, 133, 133, 62, 159, 161, 99, 63, 161, 117, 180, 190, 253, 241, 169, 62, 2, 185, 88, 63, 126, 248, 202, 190, 145, 30, 219, 62, 146, 58, 83, 63, 160, 101, 177, 190, 46, 129, 161, 61, 165, 107, 117, 63, 252, 200, 117, 190, 11, 108, 60, 62, 99, 78, 116, 63, 16, 102, 72, 190, 11, 108, 60, 62, 182, 58, 119, 63, 6, 231, 232, 189, 46, 129, 161, 61, 187, 61, 124, 63, 116, 161, 71, 189, 64, 196, 89, 63, 80, 150, 6, 63, 0, 0, 0, 0, 146, 90, 78, 63, 76, 126, 19, 63, 84, 95, 69, 61, 82, 185, 51, 63, 153, 155, 49, 63, 27, 122, 36, 62, 0, 35, 63, 63, 157, 179, 36, 63, 140, 68, 230, 61, 82, 185, 51, 63, 153, 155, 49, 63, 226, 148, 131, 61, 82, 185, 51, 63, 153, 155, 49, 63, 27, 122, 36, 190, 82, 185, 51, 63, 153, 155, 49, 63, 226, 148, 131, 189, 0, 35, 63, 63, 157, 179, 36, 63, 140, 68, 230, 189, 146, 90, 78, 63, 76, 126, 19, 63, 84, 95, 69, 189, 229, 249, 1, 63, 75, 78, 82, 63, 220, 128, 93, 62, 80, 150, 6, 63, 64, 196, 89, 63, 0, 0, 0, 0, 107, 156, 4, 63, 178, 145, 86, 63, 43, 220, 189, 61, 209, 32, 20, 63, 14, 184, 77, 63, 84, 95, 69, 61, 209, 46, 38, 63, 203, 167, 61, 63, 140, 68, 230, 61, 237, 52, 36, 63, 61, 117, 58, 63, 92, 16, 82, 62, 101, 132, 15, 63, 25, 66, 70, 63, 89, 108, 135, 62, 101, 132, 15, 63, 25, 66, 70, 63, 89, 108, 135, 190, 237, 52, 36, 63, 61, 117, 58, 63, 92, 16, 82, 190, 209, 46, 38, 63, 203, 167, 61, 63, 140, 68, 230, 189, 209, 32, 20, 63, 14, 184, 77, 63, 84, 95, 69, 189, 107, 156, 4, 63, 178, 145, 86, 63, 43, 220, 189, 189, 229, 249, 1, 63, 75, 78, 82, 63, 220, 128, 93, 190, 81, 150, 134, 62, 113, 120, 115, 63, 76, 22, 133, 189, 81, 150, 134, 62, 113, 120, 115, 63, 76, 22, 133, 61, 85, 204, 228, 62, 79, 122, 97, 63, 116, 161, 71, 189, 156, 246, 174, 62, 98, 194, 107, 63, 6, 231, 232, 189, 156, 246, 174, 62, 98, 194, 107, 63, 6, 231, 232, 61, 85, 204, 228, 62, 79, 122, 97, 63, 116, 161, 71, 61, 53, 162, 107, 62, 226, 129, 80, 63, 1, 9, 3, 63, 1, 249, 66, 62, 70, 15, 64, 63, 234, 165, 29, 63, 173, 135, 244, 62, 52, 212, 69, 63, 23, 9, 201, 62, 64, 196, 217, 62, 72, 45, 48, 63, 25, 121, 22, 63, 147, 60, 229, 62, 210, 116, 57, 63, 74, 16, 1, 63, 36, 91, 192, 62, 166, 147, 61, 63, 93, 167, 10, 63, 170, 121, 158, 62, 121, 113, 79, 63, 28, 202, 245, 62, 57, 203, 117, 62, 232, 168, 50, 63, 166, 119, 41, 63, 176, 27, 177, 62, 177, 61, 49, 63, 12, 157, 30, 63, 209, 230, 199, 62, 76, 185, 33, 63, 177, 118, 39, 63, 232, 20, 176, 62, 252, 115, 14, 63, 37, 30, 62, 63, 135, 176, 90, 63, 59, 17, 255, 62, 120, 173, 159, 61, 215, 215, 92, 63, 164, 38, 222, 62, 142, 16, 133, 62, 144, 235, 91, 63, 9, 66, 236, 62, 96, 74, 58, 62, 226, 129, 80, 63, 1, 9, 3, 63, 53, 162, 107, 62, 71, 15, 64, 63, 234, 165, 29, 63, 2, 249, 66, 62, 189, 27, 79, 63, 121, 55, 158, 62, 0, 0, 0, 63, 52, 212, 69, 63, 23, 9, 201, 62, 173, 135, 244, 62, 72, 45, 48, 63, 25, 121, 22, 63, 64, 196, 217, 62, 210, 116, 57, 63, 74, 16, 1, 63, 147, 60, 229, 62, 166, 147, 61, 63, 93, 167, 10, 63, 36, 91, 192, 62, 121, 113, 79, 63, 28, 202, 245, 62, 170, 121, 158, 62, 2, 185, 88, 63, 126, 248, 202, 62, 253, 241, 169, 62, 146, 58, 83, 63, 160, 101, 177, 62, 145, 30, 219, 62, 233, 168, 50, 63, 166, 119, 41, 63, 57, 203, 117, 62, 177, 61, 49, 63, 12, 157, 30, 63, 177, 27, 177, 62, 76, 185, 33, 63, 177, 118, 39, 63, 209, 230, 199, 62, 252, 115, 14, 63, 37, 30, 62, 63, 232, 20, 176, 62, 1, 9, 3, 63, 53, 162, 107, 62, 226, 129, 80, 63, 153, 155, 49, 63, 26, 122, 36, 62, 81, 185, 51, 63, 234, 165, 29, 63, 1, 249, 66, 62, 70, 15, 64, 63, 157, 179, 36, 63, 138, 68, 230, 61, 255, 34, 63, 63, 76, 126, 19, 63, 83, 95, 69, 61, 146, 90, 78, 63, 23, 9, 201, 62, 173, 135, 244, 62, 52, 212, 69, 63, 25, 121, 22, 63, 64, 196, 217, 62, 72, 45, 48, 63, 74, 16, 1, 63, 147, 60, 229, 62, 210, 116, 57, 63, 93, 167, 10, 63, 36, 91, 192, 62, 166, 147, 61, 63, 28, 202, 245, 62, 170, 121, 158, 62, 121, 113, 79, 63, 25, 66, 70, 63, 88, 108, 135, 62, 101, 132, 15, 63, 61, 117, 58, 63, 91, 16, 82, 62, 236, 52, 36, 63, 166, 119, 41, 63, 57, 203, 117, 62, 232, 168, 50, 63, 12, 157, 30, 63, 176, 27, 177, 62, 177, 61, 49, 63, 177, 118, 39, 63, 209, 230, 199, 62, 76, 185, 33, 63, 37, 30, 62, 63, 232, 20, 176, 62, 252, 115, 14, 63, 34, 253, 27, 63, 39, 47, 30, 63, 111, 184, 242, 62, 70, 18, 1, 63, 58, 119, 40, 63, 1, 255, 9, 63, 39, 47, 30, 63, 111, 184, 242, 62, 34, 253, 27, 63, 58, 119, 40, 63, 1, 255, 9, 63, 70, 18, 1, 63, 111, 184, 242, 62, 34, 253, 27, 63, 39, 47, 30, 63, 1, 255, 9, 63, 70, 18, 1, 63, 58, 119, 40, 63, 64, 80, 98, 63, 80, 101, 230, 62, 0, 0, 0, 0, 151, 65, 118, 63, 150, 233, 139, 62, 0, 0, 0, 0, 150, 181, 109, 63, 230, 176, 178, 62, 0, 0, 0, 0, 221, 161, 110, 63, 129, 149, 164, 62, 120, 173, 159, 61, 145, 119, 100, 63, 185, 122, 197, 62, 96, 74, 58, 62, 0, 0, 128, 63, 0, 0, 0, 0, 0, 0, 0, 0, 187, 61, 124, 63, 116, 161, 71, 61, 46, 129, 161, 61, 113, 120, 115, 63, 224, 91, 38, 62, 81, 150, 134, 62, 182, 58, 119, 63, 6, 231, 232, 61, 11, 108, 60, 62, 99, 78, 116, 63, 16, 102, 72, 62, 11, 108, 60, 62, 165, 107, 117, 63, 252, 200, 117, 62, 46, 129, 161, 61, 234, 45, 121, 63, 158, 224, 67, 62, 0, 0, 0, 0, 173, 19, 125, 63, 27, 229, 167, 61, 0, 0, 0, 0, 159, 161, 99, 63, 161, 117, 180, 62, 124, 133, 133, 62, 169, 174, 108, 63, 230, 189, 121, 62, 99, 33, 134, 62, 213, 143, 104, 63, 153, 97, 83, 62, 210, 2, 171, 62, 89, 4, 90, 63, 157, 180, 135, 62, 126, 147, 219, 62, 64, 196, 89, 63, 80, 150, 6, 191, 0, 0, 0, 0, 135, 176, 90, 63, 59, 17, 255, 190, 120, 173, 159, 61, 215, 215, 92, 63, 164, 38, 222, 190, 142, 16, 133, 62, 144, 235, 91, 63, 9, 66, 236, 190, 96, 74, 58, 62, 145, 119, 100, 63, 185, 122, 197, 190, 96, 74, 58, 62, 151, 65, 118, 63, 150, 233, 139, 190, 0, 0, 0, 0, 221, 161, 110, 63, 129, 149, 164, 190, 120, 173, 159, 61, 150, 181, 109, 63, 230, 176, 178, 190, 0, 0, 0, 0, 64, 80, 98, 63, 80, 101, 230, 190, 0, 0, 0, 0, 189, 27, 79, 63, 121, 55, 158, 190, 0, 0, 0, 63, 89, 4, 90, 63, 157, 180, 135, 190, 126, 147, 219, 62, 113, 120, 115, 63, 224, 91, 38, 190, 81, 150, 134, 62, 213, 143, 104, 63, 153, 97, 83, 190, 210, 2, 171, 62, 169, 174, 108, 63, 230, 189, 121, 190, 99, 33, 134, 62, 159, 161, 99, 63, 161, 117, 180, 190, 124, 133, 133, 62, 2, 185, 88, 63, 126, 248, 202, 190, 253, 241, 169, 62, 146, 58, 83, 63, 160, 101, 177, 190, 145, 30, 219, 62, 173, 19, 125, 63, 27, 229, 167, 189, 0, 0, 0, 0, 234, 45, 121, 63, 158, 224, 67, 190, 0, 0, 0, 0, 165, 107, 117, 63, 252, 200, 117, 190, 46, 129, 161, 61, 99, 78, 116, 63, 16, 102, 72, 190, 11, 108, 60, 62, 182, 58, 119, 63, 6, 231, 232, 189, 11, 108, 60, 62, 187, 61, 124, 63, 116, 161, 71, 189, 46, 129, 161, 61, 153, 155, 49, 63, 225, 148, 131, 61, 81, 185, 51, 63, 153, 155, 49, 63, 26, 122, 36, 190, 81, 185, 51, 63, 153, 155, 49, 63, 225, 148, 131, 189, 81, 185, 51, 63, 157, 179, 36, 63, 138, 68, 230, 189, 255, 34, 63, 63, 76, 126, 19, 63, 83, 95, 69, 189, 146, 90, 78, 63, 75, 78, 82, 63, 220, 128, 93, 62, 229, 249, 1, 63, 64, 196, 89, 63, 0, 0, 0, 0, 80, 150, 6, 63, 178, 145, 86, 63, 43, 220, 189, 61, 107, 156, 4, 63, 14, 184, 77, 63, 83, 95, 69, 61, 208, 32, 20, 63, 203, 167, 61, 63, 138, 68, 230, 61, 209, 46, 38, 63, 25, 66, 70, 63, 88, 108, 135, 190, 101, 132, 15, 63, 61, 117, 58, 63, 91, 16, 82, 190, 236, 52, 36, 63, 203, 167, 61, 63, 138, 68, 230, 189, 209, 46, 38, 63, 14, 184, 77, 63, 83, 95, 69, 189, 208, 32, 20, 63, 178, 145, 86, 63, 43, 220, 189, 189, 107, 156, 4, 63, 75, 78, 82, 63, 220, 128, 93, 190, 229, 249, 1, 63, 113, 120, 115, 63, 76, 22, 133, 189, 81, 150, 134, 62, 113, 120, 115, 63, 76, 22, 133, 61, 81, 150, 134, 62, 79, 122, 97, 63, 116, 161, 71, 189, 85, 204, 228, 62, 98, 194, 107, 63, 6, 231, 232, 189, 156, 246, 174, 62, 98, 194, 107, 63, 6, 231, 232, 61, 156, 246, 174, 62, 79, 122, 97, 63, 116, 161, 71, 61, 85, 204, 228, 62, 135, 176, 90, 63, 59, 17, 255, 62, 120, 173, 159, 189, 215, 215, 92, 63, 164, 38, 222, 62, 142, 16, 133, 190, 144, 235, 91, 63, 9, 66, 236, 62, 96, 74, 58, 190, 145, 119, 100, 63, 185, 122, 197, 62, 96, 74, 58, 190, 221, 161, 110, 63, 129, 149, 164, 62, 120, 173, 159, 189, 189, 27, 79, 63, 121, 55, 158, 62, 0, 0, 0, 191, 89, 4, 90, 63, 157, 180, 135, 62, 126, 147, 219, 190, 113, 120, 115, 63, 224, 91, 38, 62, 81, 150, 134, 190, 213, 143, 104, 63, 153, 97, 83, 62, 210, 2, 171, 190, 169, 174, 108, 63, 230, 189, 121, 62, 99, 33, 134, 190, 159, 161, 99, 63, 161, 117, 180, 62, 124, 133, 133, 190, 2, 185, 88, 63, 126, 248, 202, 62, 253, 241, 169, 190, 146, 58, 83, 63, 160, 101, 177, 62, 145, 30, 219, 190, 165, 107, 117, 63, 252, 200, 117, 62, 46, 129, 161, 189, 99, 78, 116, 63, 16, 102, 72, 62, 11, 108, 60, 190, 182, 58, 119, 63, 6, 231, 232, 61, 11, 108, 60, 190, 187, 61, 124, 63, 116, 161, 71, 61, 46, 129, 161, 189, 80, 150, 6, 63, 0, 0, 0, 0, 64, 196, 89, 191, 76, 126, 19, 63, 83, 95, 69, 189, 146, 90, 78, 191, 153, 155, 49, 63, 26, 122, 36, 190, 81, 185, 51, 191, 157, 179, 36, 63, 138, 68, 230, 189, 255, 34, 63, 191, 153, 155, 49, 63, 225, 148, 131, 189, 81, 185, 51, 191, 153, 155, 49, 63, 26, 122, 36, 62, 81, 185, 51, 191, 153, 155, 49, 63, 225, 148, 131, 61, 81, 185, 51, 191, 157, 179, 36, 63, 138, 68, 230, 61, 255, 34, 63, 191, 76, 126, 19, 63, 83, 95, 69, 61, 146, 90, 78, 191, 189, 27, 79, 63, 121, 55, 158, 190, 0, 0, 0, 191, 75, 78, 82, 63, 220, 128, 93, 190, 229, 249, 1, 191, 64, 196, 89, 63, 0, 0, 0, 0, 80, 150, 6, 191, 178, 145, 86, 63, 43, 220, 189, 189, 107, 156, 4, 191, 14, 184, 77, 63, 83, 95, 69, 189, 208, 32, 20, 191, 203, 167, 61, 63, 138, 68, 230, 189, 209, 46, 38, 191, 61, 117, 58, 63, 91, 16, 82, 190, 236, 52, 36, 191, 25, 66, 70, 63, 88, 108, 135, 190, 101, 132, 15, 191, 25, 66, 70, 63, 88, 108, 135, 62, 101, 132, 15, 191, 61, 117, 58, 63, 91, 16, 82, 62, 236, 52, 36, 191, 203, 167, 61, 63, 138, 68, 230, 61, 209, 46, 38, 191, 14, 184, 77, 63, 83, 95, 69, 61, 208, 32, 20, 191, 178, 145, 86, 63, 43, 220, 189, 61, 107, 156, 4, 191, 75, 78, 82, 63, 220, 128, 93, 62, 229, 249, 1, 191, 221, 161, 110, 63, 129, 149, 164, 190, 120, 173, 159, 189, 215, 215, 92, 63, 164, 38, 222, 190, 142, 16, 133, 190, 145, 119, 100, 63, 185, 122, 197, 190, 96, 74, 58, 190, 144, 235, 91, 63, 9, 66, 236, 190, 96, 74, 58, 190, 135, 176, 90, 63, 59, 17, 255, 190, 120, 173, 159, 189, 187, 61, 124, 63, 116, 161, 71, 189, 46, 129, 161, 189, 113, 120, 115, 63, 224, 91, 38, 190, 81, 150, 134, 190, 182, 58, 119, 63, 6, 231, 232, 189, 11, 108, 60, 190, 99, 78, 116, 63, 16, 102, 72, 190, 11, 108, 60, 190, 165, 107, 117, 63, 252, 200, 117, 190, 46, 129, 161, 189, 146, 58, 83, 63, 160, 101, 177, 190, 145, 30, 219, 190, 2, 185, 88, 63, 126, 248, 202, 190, 253, 241, 169, 190, 159, 161, 99, 63, 161, 117, 180, 190, 124, 133, 133, 190, 169, 174, 108, 63, 230, 189, 121, 190, 99, 33, 134, 190, 213, 143, 104, 63, 153, 97, 83, 190, 210, 2, 171, 190, 89, 4, 90, 63, 157, 180, 135, 190, 126, 147, 219, 190, 79, 122, 97, 63, 116, 161, 71, 61, 85, 204, 228, 190, 98, 194, 107, 63, 6, 231, 232, 61, 156, 246, 174, 190, 98, 194, 107, 63, 6, 231, 232, 189, 156, 246, 174, 190, 79, 122, 97, 63, 116, 161, 71, 189, 85, 204, 228, 190, 113, 120, 115, 63, 76, 22, 133, 61, 81, 150, 134, 190, 113, 120, 115, 63, 76, 22, 133, 189, 81, 150, 134, 190, 83, 95, 69, 61, 146, 90, 78, 63, 76, 126, 19, 191, 26, 122, 36, 62, 81, 185, 51, 63, 153, 155, 49, 191, 138, 68, 230, 61, 255, 34, 63, 63, 157, 179, 36, 191, 1, 249, 66, 62, 70, 15, 64, 63, 234, 165, 29, 191, 53, 162, 107, 62, 226, 129, 80, 63, 1, 9, 3, 191, 121, 55, 158, 62, 0, 0, 0, 63, 189, 27, 79, 191, 232, 20, 176, 62, 252, 115, 14, 63, 37, 30, 62, 191, 64, 196, 217, 62, 72, 45, 48, 63, 25, 121, 22, 191, 209, 230, 199, 62, 76, 185, 33, 63, 177, 118, 39, 191, 176, 27, 177, 62, 177, 61, 49, 63, 12, 157, 30, 191, 57, 203, 117, 62, 232, 168, 50, 63, 166, 119, 41, 191, 91, 16, 82, 62, 236, 52, 36, 63, 61, 117, 58, 191, 88, 108, 135, 62, 101, 132, 15, 63, 25, 66, 70, 191, 170, 121, 158, 62, 121, 113, 79, 63, 28, 202, 245, 190, 36, 91, 192, 62, 166, 147, 61, 63, 93, 167, 10, 191, 147, 60, 229, 62, 210, 116, 57, 63, 74, 16, 1, 191, 173, 135, 244, 62, 52, 212, 69, 63, 23, 9, 201, 190, 234, 165, 29, 63, 1, 249, 66, 62, 70, 15, 64, 191, 164, 38, 222, 62, 142, 16, 133, 62, 215, 215, 92, 191, 1, 9, 3, 63, 53, 162, 107, 62, 226, 129, 80, 191, 9, 66, 236, 62, 96, 74, 58, 62, 144, 235, 91, 191, 59, 17, 255, 62, 120, 173, 159, 61, 135, 176, 90, 191, 37, 30, 62, 63, 232, 20, 176, 62, 252, 115, 14, 191, 25, 121, 22, 63, 64, 196, 217, 62, 72, 45, 48, 191, 177, 118, 39, 63, 209, 230, 199, 62, 76, 185, 33, 191, 12, 157, 30, 63, 176, 27, 177, 62, 177, 61, 49, 191, 166, 119, 41, 63, 57, 203, 117, 62, 232, 168, 50, 191, 160, 101, 177, 62, 145, 30, 219, 62, 146, 58, 83, 191, 126, 248, 202, 62, 253, 241, 169, 62, 2, 185, 88, 191, 28, 202, 245, 62, 170, 121, 158, 62, 121, 113, 79, 191, 93, 167, 10, 63, 36, 91, 192, 62, 166, 147, 61, 191, 74, 16, 1, 63, 147, 60, 229, 62, 210, 116, 57, 191, 23, 9, 201, 62, 173, 135, 244, 62, 52, 212, 69, 191, 71, 15, 64, 63, 234, 165, 29, 63, 2, 249, 66, 190, 226, 129, 80, 63, 1, 9, 3, 63, 53, 162, 107, 190, 252, 115, 14, 63, 37, 30, 62, 63, 232, 20, 176, 190, 72, 45, 48, 63, 25, 121, 22, 63, 64, 196, 217, 190, 76, 185, 33, 63, 177, 118, 39, 63, 209, 230, 199, 190, 177, 61, 49, 63, 12, 157, 30, 63, 177, 27, 177, 190, 233, 168, 50, 63, 166, 119, 41, 63, 57, 203, 117, 190, 121, 113, 79, 63, 28, 202, 245, 62, 170, 121, 158, 190, 166, 147, 61, 63, 93, 167, 10, 63, 36, 91, 192, 190, 210, 116, 57, 63, 74, 16, 1, 63, 147, 60, 229, 190, 52, 212, 69, 63, 23, 9, 201, 62, 173, 135, 244, 190, 1, 255, 9, 63, 70, 18, 1, 63, 58, 119, 40, 191, 111, 184, 242, 62, 34, 253, 27, 63, 39, 47, 30, 191, 58, 119, 40, 63, 1, 255, 9, 63, 70, 18, 1, 191, 39, 47, 30, 63, 111, 184, 242, 62, 34, 253, 27, 191, 70, 18, 1, 63, 58, 119, 40, 63, 1, 255, 9, 191, 34, 253, 27, 63, 39, 47, 30, 63, 111, 184, 242, 190, 83, 95, 69, 189, 146, 90, 78, 63, 76, 126, 19, 191, 26, 122, 36, 190, 81, 185, 51, 63, 153, 155, 49, 191, 138, 68, 230, 189, 255, 34, 63, 63, 157, 179, 36, 191, 225, 148, 131, 189, 81, 185, 51, 63, 153, 155, 49, 191, 225, 148, 131, 61, 81, 185, 51, 63, 153, 155, 49, 191, 121, 55, 158, 190, 0, 0, 0, 63, 189, 27, 79, 191, 220, 128, 93, 190, 229, 249, 1, 63, 75, 78, 82, 191, 0, 0, 0, 0, 80, 150, 6, 63, 64, 196, 89, 191, 43, 220, 189, 189, 107, 156, 4, 63, 178, 145, 86, 191, 83, 95, 69, 189, 208, 32, 20, 63, 14, 184, 77, 191, 138, 68, 230, 189, 209, 46, 38, 63, 203, 167, 61, 191, 91, 16, 82, 190, 236, 52, 36, 63, 61, 117, 58, 191, 88, 108, 135, 190, 101, 132, 15, 63, 25, 66, 70, 191, 138, 68, 230, 61, 209, 46, 38, 63, 203, 167, 61, 191, 83, 95, 69, 61, 208, 32, 20, 63, 14, 184, 77, 191, 43, 220, 189, 61, 107, 156, 4, 63, 178, 145, 86, 191, 220, 128, 93, 62, 229, 249, 1, 63, 75, 78, 82, 191, 80, 150, 6, 191, 0, 0, 0, 0, 64, 196, 89, 191, 80, 101, 230, 190, 0, 0, 0, 0, 64, 80, 98, 191, 150, 233, 139, 190, 0, 0, 0, 0, 151, 65, 118, 191, 230, 176, 178, 190, 0, 0, 0, 0, 150, 181, 109, 191, 129, 149, 164, 190, 120, 173, 159, 61, 221, 161, 110, 191, 164, 38, 222, 190, 142, 16, 133, 62, 215, 215, 92, 191, 185, 122, 197, 190, 96, 74, 58, 62, 145, 119, 100, 191, 9, 66, 236, 190, 96, 74, 58, 62, 144, 235, 91, 191, 59, 17, 255, 190, 120, 173, 159, 61, 135, 176, 90, 191, 0, 0, 0, 0, 0, 0, 0, 0, 0, 0, 128, 191, 116, 161, 71, 189, 46, 129, 161, 61, 187, 61, 124, 191, 224, 91, 38, 190, 81, 150, 134, 62, 113, 120, 115, 191, 6, 231, 232, 189, 11, 108, 60, 62, 182, 58, 119, 191, 16, 102, 72, 190, 11, 108, 60, 62, 99, 78, 116, 191, 252, 200, 117, 190, 46, 129, 161, 61, 165, 107, 117, 191, 158, 224, 67, 190, 0, 0, 0, 0, 234, 45, 121, 191, 27, 229, 167, 189, 0, 0, 0, 0, 173, 19, 125, 191, 160, 101, 177, 190, 145, 30, 219, 62, 146, 58, 83, 191, 126, 248, 202, 190, 253, 241, 169, 62, 2, 185, 88, 191, 161, 117, 180, 190, 124, 133, 133, 62, 159, 161, 99, 191, 230, 189, 121, 190, 99, 33, 134, 62, 169, 174, 108, 191, 153, 97, 83, 190, 210, 2, 171, 62, 213, 143, 104, 191, 157, 180, 135, 190, 126, 147, 219, 62, 89, 4, 90, 191, 185, 122, 197, 62, 96, 74, 58, 62, 145, 119, 100, 191, 150, 233, 139, 62, 0, 0, 0, 0, 151, 65, 118, 191, 129, 149, 164, 62, 120, 173, 159, 61, 221, 161, 110, 191, 230, 176, 178, 62, 0, 0, 0, 0, 150, 181, 109, 191, 80, 101, 230, 62, 0, 0, 0, 0, 64, 80, 98, 191, 157, 180, 135, 62, 126, 147, 219, 62, 89, 4, 90, 191, 224, 91, 38, 62, 81, 150, 134, 62, 113, 120, 115, 191, 153, 97, 83, 62, 210, 2, 171, 62, 213, 143, 104, 191, 230, 189, 121, 62, 99, 33, 134, 62, 169, 174, 108, 191, 161, 117, 180, 62, 124, 133, 133, 62, 159, 161, 99, 191, 27, 229, 167, 61, 0, 0, 0, 0, 173, 19, 125, 191, 158, 224, 67, 62, 0, 0, 0, 0, 234, 45, 121, 191, 252, 200, 117, 62, 46, 129, 161, 61, 165, 107, 117, 191, 16, 102, 72, 62, 11, 108, 60, 62, 99, 78, 116, 191, 6, 231, 232, 61, 11, 108, 60, 62, 182, 58, 119, 191, 116, 161, 71, 61, 46, 129, 161, 61, 187, 61, 124, 191, 6, 231, 232, 189, 156, 246, 174, 62, 98, 194, 107, 191, 116, 161, 71, 189, 85, 204, 228, 62, 79, 122, 97, 191, 76, 22, 133, 61, 81, 150, 134, 62, 113, 120, 115, 191, 76, 22, 133, 189, 81, 150, 134, 62, 113, 120, 115, 191, 116, 161, 71, 61, 85, 204, 228, 62, 79, 122, 97, 191, 6, 231, 232, 61, 156, 246, 174, 62, 98, 194, 107, 191, 59, 17, 255, 190, 120, 173, 159, 189, 135, 176, 90, 191, 164, 38, 222, 190, 142, 16, 133, 190, 215, 215, 92, 191, 9, 66, 236, 190, 96, 74, 58, 190, 144, 235, 91, 191, 185, 122, 197, 190, 96, 74, 58, 190, 145, 119, 100, 191, 129, 149, 164, 190, 120, 173, 159, 189, 221, 161, 110, 191, 121, 55, 158, 190, 0, 0, 0, 191, 189, 27, 79, 191, 157, 180, 135, 190, 126, 147, 219, 190, 89, 4, 90, 191, 224, 91, 38, 190, 81, 150, 134, 190, 113, 120, 115, 191, 153, 97, 83, 190, 210, 2, 171, 190, 213, 143, 104, 191, 230, 189, 121, 190, 99, 33, 134, 190, 169, 174, 108, 191, 161, 117, 180, 190, 124, 133, 133, 190, 159, 161, 99, 191, 126, 248, 202, 190, 253, 241, 169, 190, 2, 185, 88, 191, 160, 101, 177, 190, 145, 30, 219, 190, 146, 58, 83, 191, 252, 200, 117, 190, 46, 129, 161, 189, 165, 107, 117, 191, 16, 102, 72, 190, 11, 108, 60, 190, 99, 78, 116, 191, 6, 231, 232, 189, 11, 108, 60, 190, 182, 58, 119, 191, 116, 161, 71, 189, 46, 129, 161, 189, 187, 61, 124, 191, 0, 0, 0, 0, 64, 196, 89, 191, 80, 150, 6, 191, 83, 95, 69, 61, 146, 90, 78, 191, 76, 126, 19, 191, 26, 122, 36, 62, 81, 185, 51, 191, 153, 155, 49, 191, 138, 68, 230, 61, 255, 34, 63, 191, 157, 179, 36, 191, 225, 148, 131, 61, 81, 185, 51, 191, 153, 155, 49, 191, 26, 122, 36, 190, 81, 185, 51, 191, 153, 155, 49, 191, 225, 148, 131, 189, 81, 185, 51, 191, 153, 155, 49, 191, 138, 68, 230, 189, 255, 34, 63, 191, 157, 179, 36, 191, 83, 95, 69, 189, 146, 90, 78, 191, 76, 126, 19, 191, 121, 55, 158, 62, 0, 0, 0, 191, 189, 27, 79, 191, 220, 128, 93, 62, 229, 249, 1, 191, 75, 78, 82, 191, 0, 0, 0, 0, 80, 150, 6, 191, 64, 196, 89, 191, 43, 220, 189, 61, 107, 156, 4, 191, 178, 145, 86, 191, 83, 95, 69, 61, 208, 32, 20, 191, 14, 184, 77, 191, 138, 68, 230, 61, 209, 46, 38, 191, 203, 167, 61, 191, 91, 16, 82, 62, 236, 52, 36, 191, 61, 117, 58, 191, 88, 108, 135, 62, 101, 132, 15, 191, 25, 66, 70, 191, 88, 108, 135, 190, 101, 132, 15, 191, 25, 66, 70, 191, 91, 16, 82, 190, 236, 52, 36, 191, 61, 117, 58, 191, 138, 68, 230, 189, 209, 46, 38, 191, 203, 167, 61, 191, 83, 95, 69, 189, 208, 32, 20, 191, 14, 184, 77, 191, 43, 220, 189, 189, 107, 156, 4, 191, 178, 145, 86, 191, 220, 128, 93, 190, 229, 249, 1, 191, 75, 78, 82, 191, 129, 149, 164, 62, 120, 173, 159, 189, 221, 161, 110, 191, 164, 38, 222, 62, 142, 16, 133, 190, 215, 215, 92, 191, 185, 122, 197, 62, 96, 74, 58, 190, 145, 119, 100, 191, 9, 66, 236, 62, 96, 74, 58, 190, 144, 235, 91, 191, 59, 17, 255, 62, 120, 173, 159, 189, 135, 176, 90, 191, 116, 161, 71, 61, 46, 129, 161, 189, 187, 61, 124, 191, 224, 91, 38, 62, 81, 150, 134, 190, 113, 120, 115, 191, 6, 231, 232, 61, 11, 108, 60, 190, 182, 58, 119, 191, 16, 102, 72, 62, 11, 108, 60, 190, 99, 78, 116, 191, 252, 200, 117, 62, 46, 129, 161, 189, 165, 107, 117, 191, 160, 101, 177, 62, 145, 30, 219, 190, 146, 58, 83, 191, 126, 248, 202, 62, 253, 241, 169, 190, 2, 185, 88, 191, 161, 117, 180, 62, 124, 133, 133, 190, 159, 161, 99, 191, 230, 189, 121, 62, 99, 33, 134, 190, 169, 174, 108, 191, 153, 97, 83, 62, 210, 2, 171, 190, 213, 143, 104, 191, 157, 180, 135, 62, 126, 147, 219, 190, 89, 4, 90, 191, 116, 161, 71, 189, 85, 204, 228, 190, 79, 122, 97, 191, 6, 231, 232, 189, 156, 246, 174, 190, 98, 194, 107, 191, 6, 231, 232, 61, 156, 246, 174, 190, 98, 194, 107, 191, 116, 161, 71, 61, 85, 204, 228, 190, 79, 122, 97, 191, 76, 22, 133, 189, 81, 150, 134, 190, 113, 120, 115, 191, 76, 22, 133, 61, 81, 150, 134, 190, 113, 120, 115, 191, 120, 173, 159, 61, 135, 176, 90, 191, 59, 17, 255, 190, 142, 16, 133, 62, 215, 215, 92, 191, 164, 38, 222, 190, 96, 74, 58, 62, 144, 235, 91, 191, 9, 66, 236, 190, 53, 162, 107, 62, 226, 129, 80, 191, 1, 9, 3, 191, 1, 249, 66, 62, 70, 15, 64, 191, 234, 165, 29, 191, 0, 0, 0, 63, 189, 27, 79, 191, 121, 55, 158, 190, 173, 135, 244, 62, 52, 212, 69, 191, 23, 9, 201, 190, 64, 196, 217, 62, 72, 45, 48, 191, 25, 121, 22, 191, 147, 60, 229, 62, 210, 116, 57, 191, 74, 16, 1, 191, 36, 91, 192, 62, 166, 147, 61, 191, 93, 167, 10, 191, 170, 121, 158, 62, 121, 113, 79, 191, 28, 202, 245, 190, 253, 241, 169, 62, 2, 185, 88, 191, 126, 248, 202, 190, 145, 30, 219, 62, 146, 58, 83, 191, 160, 101, 177, 190, 57, 203, 117, 62, 232, 168, 50, 191, 166, 119, 41, 191, 176, 27, 177, 62, 177, 61, 49, 191, 12, 157, 30, 191, 209, 230, 199, 62, 76, 185, 33, 191, 177, 118, 39, 191, 232, 20, 176, 62, 252, 115, 14, 191, 37, 30, 62, 191, 226, 129, 80, 63, 1, 9, 3, 191, 53, 162, 107, 190, 82, 185, 51, 63, 153, 155, 49, 191, 27, 122, 36, 190, 71, 15, 64, 63, 234, 165, 29, 191, 2, 249, 66, 190, 0, 35, 63, 63, 157, 179, 36, 191, 140, 68, 230, 189, 146, 90, 78, 63, 76, 126, 19, 191, 84, 95, 69, 189, 52, 212, 69, 63, 23, 9, 201, 190, 173, 135, 244, 190, 72, 45, 48, 63, 25, 121, 22, 191, 64, 196, 217, 190, 210, 116, 57, 63, 74, 16, 1, 191, 147, 60, 229, 190, 166, 147, 61, 63, 93, 167, 10, 191, 36, 91, 192, 190, 121, 113, 79, 63, 28, 202, 245, 190, 170, 121, 158, 190, 101, 132, 15, 63, 25, 66, 70, 191, 89, 108, 135, 190, 237, 52, 36, 63, 61, 117, 58, 191, 92, 16, 82, 190, 233, 168, 50, 63, 166, 119, 41, 191, 57, 203, 117, 190, 177, 61, 49, 63, 12, 157, 30, 191, 177, 27, 177, 190, 76, 185, 33, 63, 177, 118, 39, 191, 209, 230, 199, 190, 252, 115, 14, 63, 37, 30, 62, 191, 232, 20, 176, 190, 1, 9, 3, 63, 53, 162, 107, 190, 226, 129, 80, 191, 234, 165, 29, 63, 1, 249, 66, 190, 70, 15, 64, 191, 23, 9, 201, 62, 173, 135, 244, 190, 52, 212, 69, 191, 25, 121, 22, 63, 64, 196, 217, 190, 72, 45, 48, 191, 74, 16, 1, 63, 147, 60, 229, 190, 210, 116, 57, 191, 93, 167, 10, 63, 36, 91, 192, 190, 166, 147, 61, 191, 28, 202, 245, 62, 170, 121, 158, 190, 121, 113, 79, 191, 166, 119, 41, 63, 57, 203, 117, 190, 232, 168, 50, 191, 12, 157, 30, 63, 176, 27, 177, 190, 177, 61, 49, 191, 177, 118, 39, 63, 209, 230, 199, 190, 76, 185, 33, 191, 37, 30, 62, 63, 232, 20, 176, 190, 252, 115, 14, 191, 34, 253, 27, 63, 39, 47, 30, 191, 111, 184, 242, 190, 70, 18, 1, 63, 58, 119, 40, 191, 1, 255, 9, 191, 39, 47, 30, 63, 111, 184, 242, 190, 34, 253, 27, 191, 58, 119, 40, 63, 1, 255, 9, 191, 70, 18, 1, 191, 111, 184, 242, 62, 34, 253, 27, 191, 39, 47, 30, 191, 1, 255, 9, 63, 70, 18, 1, 191, 58, 119, 40, 191, 0, 0, 0, 0, 64, 80, 98, 191, 80, 101, 230, 190, 0, 0, 0, 0, 151, 65, 118, 191, 150, 233, 139, 190, 0, 0, 0, 0, 150, 181, 109, 191, 230, 176, 178, 190, 120, 173, 159, 61, 221, 161, 110, 191, 129, 149, 164, 190, 96, 74, 58, 62, 145, 119, 100, 191, 185, 122, 197, 190, 0, 0, 0, 0, 0, 0, 128, 191, 0, 0, 0, 0, 46, 129, 161, 61, 187, 61, 124, 191, 116, 161, 71, 189, 81, 150, 134, 62, 113, 120, 115, 191, 224, 91, 38, 190, 11, 108, 60, 62, 182, 58, 119, 191, 6, 231, 232, 189, 11, 108, 60, 62, 99, 78, 116, 191, 16, 102, 72, 190, 46, 129, 161, 61, 165, 107, 117, 191, 252, 200, 117, 190, 0, 0, 0, 0, 234, 45, 121, 191, 158, 224, 67, 190, 0, 0, 0, 0, 173, 19, 125, 191, 27, 229, 167, 189, 124, 133, 133, 62, 159, 161, 99, 191, 161, 117, 180, 190, 99, 33, 134, 62, 169, 174, 108, 191, 230, 189, 121, 190, 210, 2, 171, 62, 213, 143, 104, 191, 153, 97, 83, 190, 126, 147, 219, 62, 89, 4, 90, 191, 157, 180, 135, 190, 0, 0, 0, 0, 64, 196, 89, 191, 80, 150, 6, 63, 120, 173, 159, 61, 135, 176, 90, 191, 59, 17, 255, 62, 142, 16, 133, 62, 215, 215, 92, 191, 164, 38, 222, 62, 96, 74, 58, 62, 144, 235, 91, 191, 9, 66, 236, 62, 96, 74, 58, 62, 145, 119, 100, 191, 185, 122, 197, 62, 0, 0, 0, 0, 151, 65, 118, 191, 150, 233, 139, 62, 120, 173, 159, 61, 221, 161, 110, 191, 129, 149, 164, 62, 0, 0, 0, 0, 150, 181, 109, 191, 230, 176, 178, 62, 0, 0, 0, 0, 64, 80, 98, 191, 80, 101, 230, 62, 0, 0, 0, 63, 189, 27, 79, 191, 121, 55, 158, 62, 126, 147, 219, 62, 89, 4, 90, 191, 157, 180, 135, 62, 81, 150, 134, 62, 113, 120, 115, 191, 224, 91, 38, 62, 210, 2, 171, 62, 213, 143, 104, 191, 153, 97, 83, 62, 99, 33, 134, 62, 169, 174, 108, 191, 230, 189, 121, 62, 124, 133, 133, 62, 159, 161, 99, 191, 161, 117, 180, 62, 253, 241, 169, 62, 2, 185, 88, 191, 126, 248, 202, 62, 145, 30, 219, 62, 146, 58, 83, 191, 160, 101, 177, 62, 0, 0, 0, 0, 173, 19, 125, 191, 27, 229, 167, 61, 0, 0, 0, 0, 234, 45, 121, 191, 158, 224, 67, 62, 46, 129, 161, 61, 165, 107, 117, 191, 252, 200, 117, 62, 11, 108, 60, 62, 99, 78, 116, 191, 16, 102, 72, 62, 11, 108, 60, 62, 182, 58, 119, 191, 6, 231, 232, 61, 46, 129, 161, 61, 187, 61, 124, 191, 116, 161, 71, 61, 82, 185, 51, 63, 153, 155, 49, 191, 226, 148, 131, 189, 82, 185, 51, 63, 153, 155, 49, 191, 27, 122, 36, 62, 82, 185, 51, 63, 153, 155, 49, 191, 226, 148, 131, 61, 0, 35, 63, 63, 157, 179, 36, 191, 140, 68, 230, 61, 146, 90, 78, 63, 76, 126, 19, 191, 84, 95, 69, 61, 229, 249, 1, 63, 75, 78, 82, 191, 220, 128, 93, 190, 80, 150, 6, 63, 64, 196, 89, 191, 0, 0, 0, 0, 107, 156, 4, 63, 178, 145, 86, 191, 43, 220, 189, 189, 209, 32, 20, 63, 14, 184, 77, 191, 84, 95, 69, 189, 209, 46, 38, 63, 203, 167, 61, 191, 140, 68, 230, 189, 101, 132, 15, 63, 25, 66, 70, 191, 89, 108, 135, 62, 237, 52, 36, 63, 61, 117, 58, 191, 92, 16, 82, 62, 209, 46, 38, 63, 203, 167, 61, 191, 140, 68, 230, 61, 209, 32, 20, 63, 14, 184, 77, 191, 84, 95, 69, 61, 107, 156, 4, 63, 178, 145, 86, 191, 43, 220, 189, 61, 229, 249, 1, 63, 75, 78, 82, 191, 220, 128, 93, 62, 81, 150, 134, 62, 113, 120, 115, 191, 76, 22, 133, 61, 81, 150, 134, 62, 113, 120, 115, 191, 76, 22, 133, 189, 85, 204, 228, 62, 79, 122, 97, 191, 116, 161, 71, 61, 156, 246, 174, 62, 98, 194, 107, 191, 6, 231, 232, 61, 156, 246, 174, 62, 98, 194, 107, 191, 6, 231, 232, 189, 85, 204, 228, 62, 79, 122, 97, 191, 116, 161, 71, 189, 120, 173, 159, 189, 135, 176, 90, 191, 59, 17, 255, 190, 142, 16, 133, 190, 215, 215, 92, 191, 164, 38, 222, 190, 96, 74, 58, 190, 144, 235, 91, 191, 9, 66, 236, 190, 96, 74, 58, 190, 145, 119, 100, 191, 185, 122, 197, 190, 120, 173, 159, 189, 221, 161, 110, 191, 129, 149, 164, 190, 0, 0, 0, 191, 189, 27, 79, 191, 121, 55, 158, 190, 126, 147, 219, 190, 89, 4, 90, 191, 157, 180, 135, 190, 81, 150, 134, 190, 113, 120, 115, 191, 224, 91, 38, 190, 210, 2, 171, 190, 213, 143, 104, 191, 153, 97, 83, 190, 99, 33, 134, 190, 169, 174, 108, 191, 230, 189, 121, 190, 124, 133, 133, 190, 159, 161, 99, 191, 161, 117, 180, 190, 253, 241, 169, 190, 2, 185, 88, 191, 126, 248, 202, 190, 145, 30, 219, 190, 146, 58, 83, 191, 160, 101, 177, 190, 46, 129, 161, 189, 165, 107, 117, 191, 252, 200, 117, 190, 11, 108, 60, 190, 99, 78, 116, 191, 16, 102, 72, 190, 11, 108, 60, 190, 182, 58, 119, 191, 6, 231, 232, 189, 46, 129, 161, 189, 187, 61, 124, 191, 116, 161, 71, 189, 64, 196, 89, 191, 80, 150, 6, 191, 0, 0, 0, 0, 146, 90, 78, 191, 76, 126, 19, 191, 84, 95, 69, 61, 82, 185, 51, 191, 153, 155, 49, 191, 27, 122, 36, 62, 0, 35, 63, 191, 157, 179, 36, 191, 140, 68, 230, 61, 82, 185, 51, 191, 153, 155, 49, 191, 226, 148, 131, 61, 82, 185, 51, 191, 153, 155, 49, 191, 27, 122, 36, 190, 82, 185, 51, 191, 153, 155, 49, 191, 226, 148, 131, 189, 0, 35, 63, 191, 157, 179, 36, 191, 140, 68, 230, 189, 146, 90, 78, 191, 76, 126, 19, 191, 84, 95, 69, 189, 0, 0, 0, 191, 189, 27, 79, 191, 121, 55, 158, 62, 229, 249, 1, 191, 75, 78, 82, 191, 220, 128, 93, 62, 80, 150, 6, 191, 64, 196, 89, 191, 0, 0, 0, 0, 107, 156, 4, 191, 178, 145, 86, 191, 43, 220, 189, 61, 209, 32, 20, 191, 14, 184, 77, 191, 84, 95, 69, 61, 209, 46, 38, 191, 203, 167, 61, 191, 140, 68, 230, 61, 237, 52, 36, 191, 61, 117, 58, 191, 92, 16, 82, 62, 101, 132, 15, 191, 25, 66, 70, 191, 89, 108, 135, 62, 101, 132, 15, 191, 25, 66, 70, 191, 89, 108, 135, 190, 237, 52, 36, 191, 61, 117, 58, 191, 92, 16, 82, 190, 209, 46, 38, 191, 203, 167, 61, 191, 140, 68, 230, 189, 209, 32, 20, 191, 14, 184, 77, 191, 84, 95, 69, 189, 107, 156, 4, 191, 178, 145, 86, 191, 43, 220, 189, 189, 229, 249, 1, 191, 75, 78, 82, 191, 220, 128, 93, 190, 120, 173, 159, 189, 221, 161, 110, 191, 129, 149, 164, 62, 142, 16, 133, 190, 215, 215, 92, 191, 164, 38, 222, 62, 96, 74, 58, 190, 145, 119, 100, 191, 185, 122, 197, 62, 96, 74, 58, 190, 144, 235, 91, 191, 9, 66, 236, 62, 120, 173, 159, 189, 135, 176, 90, 191, 59, 17, 255, 62, 46, 129, 161, 189, 187, 61, 124, 191, 116, 161, 71, 61, 81, 150, 134, 190, 113, 120, 115, 191, 224, 91, 38, 62, 11, 108, 60, 190, 182, 58, 119, 191, 6, 231, 232, 61, 11, 108, 60, 190, 99, 78, 116, 191, 16, 102, 72, 62, 46, 129, 161, 189, 165, 107, 117, 191, 252, 200, 117, 62, 145, 30, 219, 190, 146, 58, 83, 191, 160, 101, 177, 62, 253, 241, 169, 190, 2, 185, 88, 191, 126, 248, 202, 62, 124, 133, 133, 190, 159, 161, 99, 191, 161, 117, 180, 62, 99, 33, 134, 190, 169, 174, 108, 191, 230, 189, 121, 62, 210, 2, 171, 190, 213, 143, 104, 191, 153, 97, 83, 62, 126, 147, 219, 190, 89, 4, 90, 191, 157, 180, 135, 62, 85, 204, 228, 190, 79, 122, 97, 191, 116, 161, 71, 189, 156, 246, 174, 190, 98, 194, 107, 191, 6, 231, 232, 189, 156, 246, 174, 190, 98, 194, 107, 191, 6, 231, 232, 61, 85, 204, 228, 190, 79, 122, 97, 191, 116, 161, 71, 61, 81, 150, 134, 190, 113, 120, 115, 191, 76, 22, 133, 189, 81, 150, 134, 190, 113, 120, 115, 191, 76, 22, 133, 61, 135, 176, 90, 191, 59, 17, 255, 190, 120, 173, 159, 61, 215, 215, 92, 191, 164, 38, 222, 190, 142, 16, 133, 62, 144, 235, 91, 191, 9, 66, 236, 190, 96, 74, 58, 62, 226, 129, 80, 191, 1, 9, 3, 191, 53, 162, 107, 62, 71, 15, 64, 191, 234, 165, 29, 191, 2, 249, 66, 62, 189, 27, 79, 191, 121, 55, 158, 190, 0, 0, 0, 63, 52, 212, 69, 191, 23, 9, 201, 190, 173, 135, 244, 62, 72, 45, 48, 191, 25, 121, 22, 191, 64, 196, 217, 62, 210, 116, 57, 191, 74, 16, 1, 191, 147, 60, 229, 62, 166, 147, 61, 191, 93, 167, 10, 191, 36, 91, 192, 62, 121, 113, 79, 191, 28, 202, 245, 190, 170, 121, 158, 62, 2, 185, 88, 191, 126, 248, 202, 190, 253, 241, 169, 62, 146, 58, 83, 191, 160, 101, 177, 190, 145, 30, 219, 62, 233, 168, 50, 191, 166, 119, 41, 191, 57, 203, 117, 62, 177, 61, 49, 191, 12, 157, 30, 191, 177, 27, 177, 62, 76, 185, 33, 191, 177, 118, 39, 191, 209, 230, 199, 62, 252, 115, 14, 191, 37, 30, 62, 191, 232, 20, 176, 62, 59, 17, 255, 190, 120, 173, 159, 189, 135, 176, 90, 63, 164, 38, 222, 190, 142, 16, 133, 190, 215, 215, 92, 63, 9, 66, 236, 190, 96, 74, 58, 190, 144, 235, 91, 63, 1, 9, 3, 191, 53, 162, 107, 190, 226, 129, 80, 63, 153, 155, 49, 191, 26, 122, 36, 190, 81, 185, 51, 63, 234, 165, 29, 191, 1, 249, 66, 190, 70, 15, 64, 63, 157, 179, 36, 191, 138, 68, 230, 189, 255, 34, 63, 63, 76, 126, 19, 191, 83, 95, 69, 189, 146, 90, 78, 63, 121, 55, 158, 190, 0, 0, 0, 191, 189, 27, 79, 63, 23, 9, 201, 190, 173, 135, 244, 190, 52, 212, 69, 63, 25, 121, 22, 191, 64, 196, 217, 190, 72, 45, 48, 63, 74, 16, 1, 191, 147, 60, 229, 190, 210, 116, 57, 63, 93, 167, 10, 191, 36, 91, 192, 190, 166, 147, 61, 63, 28, 202, 245, 190, 170, 121, 158, 190, 121, 113, 79, 63, 126, 248, 202, 190, 253, 241, 169, 190, 2, 185, 88, 63, 160, 101, 177, 190, 145, 30, 219, 190, 146, 58, 83, 63, 25, 66, 70, 191, 88, 108, 135, 190, 101, 132, 15, 63, 61, 117, 58, 191, 91, 16, 82, 190, 236, 52, 36, 63, 166, 119, 41, 191, 57, 203, 117, 190, 232, 168, 50, 63, 12, 157, 30, 191, 176, 27, 177, 190, 177, 61, 49, 63, 177, 118, 39, 191, 209, 230, 199, 190, 76, 185, 33, 63, 37, 30, 62, 191, 232, 20, 176, 190, 252, 115, 14, 63, 53, 162, 107, 190, 226, 129, 80, 191, 1, 9, 3, 63, 26, 122, 36, 190, 81, 185, 51, 191, 153, 155, 49, 63, 1, 249, 66, 190, 70, 15, 64, 191, 234, 165, 29, 63, 138, 68, 230, 189, 255, 34, 63, 191, 157, 179, 36, 63, 83, 95, 69, 189, 146, 90, 78, 191, 76, 126, 19, 63, 173, 135, 244, 190, 52, 212, 69, 191, 23, 9, 201, 62, 64, 196, 217, 190, 72, 45, 48, 191, 25, 121, 22, 63, 147, 60, 229, 190, 210, 116, 57, 191, 74, 16, 1, 63, 36, 91, 192, 190, 166, 147, 61, 191, 93, 167, 10, 63, 170, 121, 158, 190, 121, 113, 79, 191, 28, 202, 245, 62, 88, 108, 135, 190, 101, 132, 15, 191, 25, 66, 70, 63, 91, 16, 82, 190, 236, 52, 36, 191, 61, 117, 58, 63, 57, 203, 117, 190, 232, 168, 50, 191, 166, 119, 41, 63, 176, 27, 177, 190, 177, 61, 49, 191, 12, 157, 30, 63, 209, 230, 199, 190, 76, 185, 33, 191, 177, 118, 39, 63, 232, 20, 176, 190, 252, 115, 14, 191, 37, 30, 62, 63, 39, 47, 30, 191, 111, 184, 242, 190, 34, 253, 27, 63, 58, 119, 40, 191, 1, 255, 9, 191, 70, 18, 1, 63, 111, 184, 242, 190, 34, 253, 27, 191, 39, 47, 30, 63, 1, 255, 9, 191, 70, 18, 1, 191, 58, 119, 40, 63, 34, 253, 27, 191, 39, 47, 30, 191, 111, 184, 242, 62, 70, 18, 1, 191, 58, 119, 40, 191, 1, 255, 9, 63, 129, 149, 164, 190, 120, 173, 159, 189, 221, 161, 110, 63, 185, 122, 197, 190, 96, 74, 58, 190, 145, 119, 100, 63, 116, 161, 71, 189, 46, 129, 161, 189, 187, 61, 124, 63, 224, 91, 38, 190, 81, 150, 134, 190, 113, 120, 115, 63, 6, 231, 232, 189, 11, 108, 60, 190, 182, 58, 119, 63, 16, 102, 72, 190, 11, 108, 60, 190, 99, 78, 116, 63, 252, 200, 117, 190, 46, 129, 161, 189, 165, 107, 117, 63, 161, 117, 180, 190, 124, 133, 133, 190, 159, 161, 99, 63, 230, 189, 121, 190, 99, 33, 134, 190, 169, 174, 108, 63, 153, 97, 83, 190, 210, 2, 171, 190, 213, 143, 104, 63, 157, 180, 135, 190, 126, 147, 219, 190, 89, 4, 90, 63, 59, 17, 255, 62, 120, 173, 159, 189, 135, 176, 90, 63, 164, 38, 222, 62, 142, 16, 133, 190, 215, 215, 92, 63, 9, 66, 236, 62, 96, 74, 58, 190, 144, 235, 91, 63, 185, 122, 197, 62, 96, 74, 58, 190, 145, 119, 100, 63, 129, 149, 164, 62, 120, 173, 159, 189, 221, 161, 110, 63, 121, 55, 158, 62, 0, 0, 0, 191, 189, 27, 79, 63, 157, 180, 135, 62, 126, 147, 219, 190, 89, 4, 90, 63, 224, 91, 38, 62, 81, 150, 134, 190, 113, 120, 115, 63, 153, 97, 83, 62, 210, 2, 171, 190, 213, 143, 104, 63, 230, 189, 121, 62, 99, 33, 134, 190, 169, 174, 108, 63, 161, 117, 180, 62, 124, 133, 133, 190, 159, 161, 99, 63, 126, 248, 202, 62, 253, 241, 169, 190, 2, 185, 88, 63, 160, 101, 177, 62, 145, 30, 219, 190, 146, 58, 83, 63, 252, 200, 117, 62, 46, 129, 161, 189, 165, 107, 117, 63, 16, 102, 72, 62, 11, 108, 60, 190, 99, 78, 116, 63, 6, 231, 232, 61, 11, 108, 60, 190, 182, 58, 119, 63, 116, 161, 71, 61, 46, 129, 161, 189, 187, 61, 124, 63, 225, 148, 131, 189, 81, 185, 51, 191, 153, 155, 49, 63, 26, 122, 36, 62, 81, 185, 51, 191, 153, 155, 49, 63, 225, 148, 131, 61, 81, 185, 51, 191, 153, 155, 49, 63, 138, 68, 230, 61, 255, 34, 63, 191, 157, 179, 36, 63, 83, 95, 69, 61, 146, 90, 78, 191, 76, 126, 19, 63, 220, 128, 93, 190, 229, 249, 1, 191, 75, 78, 82, 63, 0, 0, 0, 0, 80, 150, 6, 191, 64, 196, 89, 63, 43, 220, 189, 189, 107, 156, 4, 191, 178, 145, 86, 63, 83, 95, 69, 189, 208, 32, 20, 191, 14, 184, 77, 63, 138, 68, 230, 189, 209, 46, 38, 191, 203, 167, 61, 63, 88, 108, 135, 62, 101, 132, 15, 191, 25, 66, 70, 63, 91, 16, 82, 62, 236, 52, 36, 191, 61, 117, 58, 63, 138, 68, 230, 61, 209, 46, 38, 191, 203, 167, 61, 63, 83, 95, 69, 61, 208, 32, 20, 191, 14, 184, 77, 63, 43, 220, 189, 61, 107, 156, 4, 191, 178, 145, 86, 63, 220, 128, 93, 62, 229, 249, 1, 191, 75, 78, 82, 63, 76, 22, 133, 61, 81, 150, 134, 190, 113, 120, 115, 63, 76, 22, 133, 189, 81, 150, 134, 190, 113, 120, 115, 63, 116, 161, 71, 61, 85, 204, 228, 190, 79, 122, 97, 63, 6, 231, 232, 61, 156, 246, 174, 190, 98, 194, 107, 63, 6, 231, 232, 189, 156, 246, 174, 190, 98, 194, 107, 63, 116, 161, 71, 189, 85, 204, 228, 190, 79, 122, 97, 63, 1, 249, 66, 62, 70, 15, 64, 191, 234, 165, 29, 63, 53, 162, 107, 62, 226, 129, 80, 191, 1, 9, 3, 63, 232, 20, 176, 62, 252, 115, 14, 191, 37, 30, 62, 63, 64, 196, 217, 62, 72, 45, 48, 191, 25, 121, 22, 63, 209, 230, 199, 62, 76, 185, 33, 191, 177, 118, 39, 63, 176, 27, 177, 62, 177, 61, 49, 191, 12, 157, 30, 63, 57, 203, 117, 62, 232, 168, 50, 191, 166, 119, 41, 63, 170, 121, 158, 62, 121, 113, 79, 191, 28, 202, 245, 62, 36, 91, 192, 62, 166, 147, 61, 191, 93, 167, 10, 63, 147, 60, 229, 62, 210, 116, 57, 191, 74, 16, 1, 63, 173, 135, 244, 62, 52, 212, 69, 191, 23, 9, 201, 62, 234, 165, 29, 63, 1, 249, 66, 190, 70, 15, 64, 63, 1, 9, 3, 63, 53, 162, 107, 190, 226, 129, 80, 63, 37, 30, 62, 63, 232, 20, 176, 190, 252, 115, 14, 63, 25, 121, 22, 63, 64, 196, 217, 190, 72, 45, 48, 63, 177, 118, 39, 63, 209, 230, 199, 190, 76, 185, 33, 63, 12, 157, 30, 63, 176, 27, 177, 190, 177, 61, 49, 63, 166, 119, 41, 63, 57, 203, 117, 190, 232, 168, 50, 63, 28, 202, 245, 62, 170, 121, 158, 190, 121, 113, 79, 63, 93, 167, 10, 63, 36, 91, 192, 190, 166, 147, 61, 63, 74, 16, 1, 63, 147, 60, 229, 190, 210, 116, 57, 63, 23, 9, 201, 62, 173, 135, 244, 190, 52, 212, 69, 63, 71, 15, 64, 63, 234, 165, 29, 191, 2, 249, 66, 62, 226, 129, 80, 63, 1, 9, 3, 191, 53, 162, 107, 62, 252, 115, 14, 63, 37, 30, 62, 191, 232, 20, 176, 62, 72, 45, 48, 63, 25, 121, 22, 191, 64, 196, 217, 62, 76, 185, 33, 63, 177, 118, 39, 191, 209, 230, 199, 62, 177, 61, 49, 63, 12, 157, 30, 191, 177, 27, 177, 62, 233, 168, 50, 63, 166, 119, 41, 191, 57, 203, 117, 62, 121, 113, 79, 63, 28, 202, 245, 190, 170, 121, 158, 62, 166, 147, 61, 63, 93, 167, 10, 191, 36, 91, 192, 62, 210, 116, 57, 63, 74, 16, 1, 191, 147, 60, 229, 62, 52, 212, 69, 63, 23, 9, 201, 190, 173, 135, 244, 62, 1, 255, 9, 63, 70, 18, 1, 191, 58, 119, 40, 63, 111, 184, 242, 62, 34, 253, 27, 191, 39, 47, 30, 63, 58, 119, 40, 63, 1, 255, 9, 191, 70, 18, 1, 63, 39, 47, 30, 63, 111, 184, 242, 190, 34, 253, 27, 63, 70, 18, 1, 63, 58, 119, 40, 191, 1, 255, 9, 63, 34, 253, 27, 63, 39, 47, 30, 191, 111, 184, 242, 62, 145, 119, 100, 191, 185, 122, 197, 62, 96, 74, 58, 62, 151, 65, 118, 191, 150, 233, 139, 62, 0, 0, 0, 0, 221, 161, 110, 191, 129, 149, 164, 62, 120, 173, 159, 61, 150, 181, 109, 191, 230, 176, 178, 62, 0, 0, 0, 0, 64, 80, 98, 191, 80, 101, 230, 62, 0, 0, 0, 0, 89, 4, 90, 191, 157, 180, 135, 62, 126, 147, 219, 62, 113, 120, 115, 191, 224, 91, 38, 62, 81, 150, 134, 62, 213, 143, 104, 191, 153, 97, 83, 62, 210, 2, 171, 62, 169, 174, 108, 191, 230, 189, 121, 62, 99, 33, 134, 62, 159, 161, 99, 191, 161, 117, 180, 62, 124, 133, 133, 62, 0, 0, 128, 191, 0, 0, 0, 0, 0, 0, 0, 0, 173, 19, 125, 191, 27, 229, 167, 61, 0, 0, 0, 0, 234, 45, 121, 191, 158, 224, 67, 62, 0, 0, 0, 0, 165, 107, 117, 191, 252, 200, 117, 62, 46, 129, 161, 61, 99, 78, 116, 191, 16, 102, 72, 62, 11, 108, 60, 62, 182, 58, 119, 191, 6, 231, 232, 61, 11, 108, 60, 62, 187, 61, 124, 191, 116, 161, 71, 61, 46, 129, 161, 61, 153, 155, 49, 191, 225, 148, 131, 189, 81, 185, 51, 63, 153, 155, 49, 191, 225, 148, 131, 61, 81, 185, 51, 63, 75, 78, 82, 191, 220, 128, 93, 190, 229, 249, 1, 63, 64, 196, 89, 191, 0, 0, 0, 0, 80, 150, 6, 63, 178, 145, 86, 191, 43, 220, 189, 189, 107, 156, 4, 63, 14, 184, 77, 191, 83, 95, 69, 189, 208, 32, 20, 63, 203, 167, 61, 191, 138, 68, 230, 189, 209, 46, 38, 63, 203, 167, 61, 191, 138, 68, 230, 61, 209, 46, 38, 63, 14, 184, 77, 191, 83, 95, 69, 61, 208, 32, 20, 63, 178, 145, 86, 191, 43, 220, 189, 61, 107, 156, 4, 63, 75, 78, 82, 191, 220, 128, 93, 62, 229, 249, 1, 63, 64, 80, 98, 191, 80, 101, 230, 190, 0, 0, 0, 0, 151, 65, 118, 191, 150, 233, 139, 190, 0, 0, 0, 0, 150, 181, 109, 191, 230, 176, 178, 190, 0, 0, 0, 0, 221, 161, 110, 191, 129, 149, 164, 190, 120, 173, 159, 61, 145, 119, 100, 191, 185, 122, 197, 190, 96, 74, 58, 62, 187, 61, 124, 191, 116, 161, 71, 189, 46, 129, 161, 61, 113, 120, 115, 191, 224, 91, 38, 190, 81, 150, 134, 62, 182, 58, 119, 191, 6, 231, 232, 189, 11, 108, 60, 62, 99, 78, 116, 191, 16, 102, 72, 190, 11, 108, 60, 62, 165, 107, 117, 191, 252, 200, 117, 190, 46, 129, 161, 61, 234, 45, 121, 191, 158, 224, 67, 190, 0, 0, 0, 0, 173, 19, 125, 191, 27, 229, 167, 189, 0, 0, 0, 0, 159, 161, 99, 191, 161, 117, 180, 190, 124, 133, 133, 62, 169, 174, 108, 191, 230, 189, 121, 190, 99, 33, 134, 62, 213, 143, 104, 191, 153, 97, 83, 190, 210, 2, 171, 62, 89, 4, 90, 191, 157, 180, 135, 190, 126, 147, 219, 62, 79, 122, 97, 191, 116, 161, 71, 61, 85, 204, 228, 62, 98, 194, 107, 191, 6, 231, 232, 61, 156, 246, 174, 62, 98, 194, 107, 191, 6, 231, 232, 189, 156, 246, 174, 62, 79, 122, 97, 191, 116, 161, 71, 189, 85, 204, 228, 62, 113, 120, 115, 191, 76, 22, 133, 61, 81, 150, 134, 62, 113, 120, 115, 191, 76, 22, 133, 189, 81, 150, 134, 62, 221, 161, 110, 191, 129, 149, 164, 62, 120, 173, 159, 189, 215, 215, 92, 191, 164, 38, 222, 62, 142, 16, 133, 190, 145, 119, 100, 191, 185, 122, 197, 62, 96, 74, 58, 190, 144, 235, 91, 191, 9, 66, 236, 62, 96, 74, 58, 190, 135, 176, 90, 191, 59, 17, 255, 62, 120, 173, 159, 189, 187, 61, 124, 191, 116, 161, 71, 61, 46, 129, 161, 189, 113, 120, 115, 191, 224, 91, 38, 62, 81, 150, 134, 190, 182, 58, 119, 191, 6, 231, 232, 61, 11, 108, 60, 190, 99, 78, 116, 191, 16, 102, 72, 62, 11, 108, 60, 190, 165, 107, 117, 191, 252, 200, 117, 62, 46, 129, 161, 189, 189, 27, 79, 191, 121, 55, 158, 62, 0, 0, 0, 191, 146, 58, 83, 191, 160, 101, 177, 62, 145, 30, 219, 190, 2, 185, 88, 191, 126, 248, 202, 62, 253, 241, 169, 190, 159, 161, 99, 191, 161, 117, 180, 62, 124, 133, 133, 190, 169, 174, 108, 191, 230, 189, 121, 62, 99, 33, 134, 190, 213, 143, 104, 191, 153, 97, 83, 62, 210, 2, 171, 190, 89, 4, 90, 191, 157, 180, 135, 62, 126, 147, 219, 190, 135, 176, 90, 191, 59, 17, 255, 190, 120, 173, 159, 189, 215, 215, 92, 191, 164, 38, 222, 190, 142, 16, 133, 190, 144, 235, 91, 191, 9, 66, 236, 190, 96, 74, 58, 190, 145, 119, 100, 191, 185, 122, 197, 190, 96, 74, 58, 190, 221, 161, 110, 191, 129, 149, 164, 190, 120, 173, 159, 189, 189, 27, 79, 191, 121, 55, 158, 190, 0, 0, 0, 191, 89, 4, 90, 191, 157, 180, 135, 190, 126, 147, 219, 190, 113, 120, 115, 191, 224, 91, 38, 190, 81, 150, 134, 190, 213, 143, 104, 191, 153, 97, 83, 190, 210, 2, 171, 190, 169, 174, 108, 191, 230, 189, 121, 190, 99, 33, 134, 190, 159, 161, 99, 191, 161, 117, 180, 190, 124, 133, 133, 190, 2, 185, 88, 191, 126, 248, 202, 190, 253, 241, 169, 190, 146, 58, 83, 191, 160, 101, 177, 190, 145, 30, 219, 190, 165, 107, 117, 191, 252, 200, 117, 190, 46, 129, 161, 189, 99, 78, 116, 191, 16, 102, 72, 190, 11, 108, 60, 190, 182, 58, 119, 191, 6, 231, 232, 189, 11, 108, 60, 190, 187, 61, 124, 191, 116, 161, 71, 189, 46, 129, 161, 189, 76, 126, 19, 191, 83, 95, 69, 61, 146, 90, 78, 191, 153, 155, 49, 191, 26, 122, 36, 62, 81, 185, 51, 191, 157, 179, 36, 191, 138, 68, 230, 61, 255, 34, 63, 191, 153, 155, 49, 191, 225, 148, 131, 61, 81, 185, 51, 191, 153, 155, 49, 191, 26, 122, 36, 190, 81, 185, 51, 191, 153, 155, 49, 191, 225, 148, 131, 189, 81, 185, 51, 191, 157, 179, 36, 191, 138, 68, 230, 189, 255, 34, 63, 191, 76, 126, 19, 191, 83, 95, 69, 189, 146, 90, 78, 191, 75, 78, 82, 191, 220, 128, 93, 62, 229, 249, 1, 191, 64, 196, 89, 191, 0, 0, 0, 0, 80, 150, 6, 191, 178, 145, 86, 191, 43, 220, 189, 61, 107, 156, 4, 191, 14, 184, 77, 191, 83, 95, 69, 61, 208, 32, 20, 191, 203, 167, 61, 191, 138, 68, 230, 61, 209, 46, 38, 191, 61, 117, 58, 191, 91, 16, 82, 62, 236, 52, 36, 191, 25, 66, 70, 191, 88, 108, 135, 62, 101, 132, 15, 191, 25, 66, 70, 191, 88, 108, 135, 190, 101, 132, 15, 191, 61, 117, 58, 191, 91, 16, 82, 190, 236, 52, 36, 191, 203, 167, 61, 191, 138, 68, 230, 189, 209, 46, 38, 191, 14, 184, 77, 191, 83, 95, 69, 189, 208, 32, 20, 191, 178, 145, 86, 191, 43, 220, 189, 189, 107, 156, 4, 191, 75, 78, 82, 191, 220, 128, 93, 190, 229, 249, 1, 191, 113, 120, 115, 191, 76, 22, 133, 189, 81, 150, 134, 190, 113, 120, 115, 191, 76, 22, 133, 61, 81, 150, 134, 190, 79, 122, 97, 191, 116, 161, 71, 189, 85, 204, 228, 190, 98, 194, 107, 191, 6, 231, 232, 189, 156, 246, 174, 190, 98, 194, 107, 191, 6, 231, 232, 61, 156, 246, 174, 190, 79, 122, 97, 191, 116, 161, 71, 61, 85, 204, 228, 190, 226, 129, 80, 191, 1, 9, 3, 63, 53, 162, 107, 190, 71, 15, 64, 191, 234, 165, 29, 63, 2, 249, 66, 190, 52, 212, 69, 191, 23, 9, 201, 62, 173, 135, 244, 190, 72, 45, 48, 191, 25, 121, 22, 63, 64, 196, 217, 190, 210, 116, 57, 191, 74, 16, 1, 63, 147, 60, 229, 190, 166, 147, 61, 191, 93, 167, 10, 63, 36, 91, 192, 190, 121, 113, 79, 191, 28, 202, 245, 62, 170, 121, 158, 190, 233, 168, 50, 191, 166, 119, 41, 63, 57, 203, 117, 190, 177, 61, 49, 191, 12, 157, 30, 63, 177, 27, 177, 190, 76, 185, 33, 191, 177, 118, 39, 63, 209, 230, 199, 190, 252, 115, 14, 191, 37, 30, 62, 63, 232, 20, 176, 190, 1, 9, 3, 191, 53, 162, 107, 62, 226, 129, 80, 191, 234, 165, 29, 191, 1, 249, 66, 62, 70, 15, 64, 191, 23, 9, 201, 190, 173, 135, 244, 62, 52, 212, 69, 191, 25, 121, 22, 191, 64, 196, 217, 62, 72, 45, 48, 191, 74, 16, 1, 191, 147, 60, 229, 62, 210, 116, 57, 191, 93, 167, 10, 191, 36, 91, 192, 62, 166, 147, 61, 191, 28, 202, 245, 190, 170, 121, 158, 62, 121, 113, 79, 191, 166, 119, 41, 191, 57, 203, 117, 62, 232, 168, 50, 191, 12, 157, 30, 191, 176, 27, 177, 62, 177, 61, 49, 191, 177, 118, 39, 191, 209, 230, 199, 62, 76, 185, 33, 191, 37, 30, 62, 191, 232, 20, 176, 62, 252, 115, 14, 191, 53, 162, 107, 190, 226, 129, 80, 63, 1, 9, 3, 191, 1, 249, 66, 190, 70, 15, 64, 63, 234, 165, 29, 191, 173, 135, 244, 190, 52, 212, 69, 63, 23, 9, 201, 190, 64, 196, 217, 190, 72, 45, 48, 63, 25, 121, 22, 191, 147, 60, 229, 190, 210, 116, 57, 63, 74, 16, 1, 191, 36, 91, 192, 190, 166, 147, 61, 63, 93, 167, 10, 191, 170, 121, 158, 190, 121, 113, 79, 63, 28, 202, 245, 190, 57, 203, 117, 190, 232, 168, 50, 63, 166, 119, 41, 191, 176, 27, 177, 190, 177, 61, 49, 63, 12, 157, 30, 191, 209, 230, 199, 190, 76, 185, 33, 63, 177, 118, 39, 191, 232, 20, 176, 190, 252, 115, 14, 63, 37, 30, 62, 191, 39, 47, 30, 191, 111, 184, 242, 62, 34, 253, 27, 191, 58, 119, 40, 191, 1, 255, 9, 63, 70, 18, 1, 191, 111, 184, 242, 190, 34, 253, 27, 63, 39, 47, 30, 191, 1, 255, 9, 191, 70, 18, 1, 63, 58, 119, 40, 191, 34, 253, 27, 191, 39, 47, 30, 63, 111, 184, 242, 190, 70, 18, 1, 191, 58, 119, 40, 63, 1, 255, 9, 191, 1, 249, 66, 190, 70, 15, 64, 191, 234, 165, 29, 191, 53, 162, 107, 190, 226, 129, 80, 191, 1, 9, 3, 191, 232, 20, 176, 190, 252, 115, 14, 191, 37, 30, 62, 191, 64, 196, 217, 190, 72, 45, 48, 191, 25, 121, 22, 191, 209, 230, 199, 190, 76, 185, 33, 191, 177, 118, 39, 191, 176, 27, 177, 190, 177, 61, 49, 191, 12, 157, 30, 191, 57, 203, 117, 190, 232, 168, 50, 191, 166, 119, 41, 191, 170, 121, 158, 190, 121, 113, 79, 191, 28, 202, 245, 190, 36, 91, 192, 190, 166, 147, 61, 191, 93, 167, 10, 191, 147, 60, 229, 190, 210, 116, 57, 191, 74, 16, 1, 191, 173, 135, 244, 190, 52, 212, 69, 191, 23, 9, 201, 190, 234, 165, 29, 191, 1, 249, 66, 190, 70, 15, 64, 191, 1, 9, 3, 191, 53, 162, 107, 190, 226, 129, 80, 191, 37, 30, 62, 191, 232, 20, 176, 190, 252, 115, 14, 191, 25, 121, 22, 191, 64, 196, 217, 190, 72, 45, 48, 191, 177, 118, 39, 191, 209, 230, 199, 190, 76, 185, 33, 191, 12, 157, 30, 191, 176, 27, 177, 190, 177, 61, 49, 191, 166, 119, 41, 191, 57, 203, 117, 190, 232, 168, 50, 191, 28, 202, 245, 190, 170, 121, 158, 190, 121, 113, 79, 191, 93, 167, 10, 191, 36, 91, 192, 190, 166, 147, 61, 191, 74, 16, 1, 191, 147, 60, 229, 190, 210, 116, 57, 191, 23, 9, 201, 190, 173, 135, 244, 190, 52, 212, 69, 191, 71, 15, 64, 191, 234, 165, 29, 191, 2, 249, 66, 190, 226, 129, 80, 191, 1, 9, 3, 191, 53, 162, 107, 190, 252, 115, 14, 191, 37, 30, 62, 191, 232, 20, 176, 190, 72, 45, 48, 191, 25, 121, 22, 191, 64, 196, 217, 190, 76, 185, 33, 191, 177, 118, 39, 191, 209, 230, 199, 190, 177, 61, 49, 191, 12, 157, 30, 191, 177, 27, 177, 190, 233, 168, 50, 191, 166, 119, 41, 191, 57, 203, 117, 190, 121, 113, 79, 191, 28, 202, 245, 190, 170, 121, 158, 190, 166, 147, 61, 191, 93, 167, 10, 191, 36, 91, 192, 190, 210, 116, 57, 191, 74, 16, 1, 191, 147, 60, 229, 190, 52, 212, 69, 191, 23, 9, 201, 190, 173, 135, 244, 190, 1, 255, 9, 191, 70, 18, 1, 191, 58, 119, 40, 191, 111, 184, 242, 190, 34, 253, 27, 191, 39, 47, 30, 191, 58, 119, 40, 191, 1, 255, 9, 191, 70, 18, 1, 191, 39, 47, 30, 191, 111, 184, 242, 190, 34, 253, 27, 191, 70, 18, 1, 191, 58, 119, 40, 191, 1, 255, 9, 191, 34, 253, 27, 191, 39, 47, 30, 191, 111, 184, 242, 190 ),
"array_index_data": PoolByteArray( 0, 0, 1, 0, 2, 0, 3, 0, 2, 0, 4, 0, 5, 0, 6, 0, 5, 0, 7, 0, 0, 0, 8, 0, 9, 0, 10, 0, 11, 0, 12, 0, 11, 0, 13, 0, 2, 0, 14, 0, 2, 0, 15, 0, 9, 0, 16, 0, 17, 0, 18, 0, 5, 0, 19, 0, 5, 0, 20, 0, 11, 0, 21, 0, 11, 0, 22, 0, 17, 0, 23, 0, 24, 0, 25, 0, 26, 0, 27, 0, 26, 0, 28, 0, 29, 0, 30, 0, 29, 0, 31, 0, 24, 0, 32, 0, 33, 0, 34, 0, 35, 0, 36, 0, 35, 0, 37, 0, 26, 0, 38, 0, 26, 0, 39, 0, 33, 0, 40, 0, 9, 0, 41, 0, 29, 0, 42, 0, 29, 0, 43, 0, 35, 0, 44, 0, 35, 0, 45, 0, 9, 0, 46, 0, 47, 0, 48, 0, 49, 0, 50, 0, 49, 0, 51, 0, 52, 0, 53, 0, 52, 0, 54, 0, 47, 0, 55, 0, 17, 0, 56, 0, 57, 0, 58, 0, 57, 0, 59, 0, 49, 0, 60, 0, 49, 0, 61, 0, 17, 0, 62, 0, 33, 0, 63, 0, 52, 0, 64, 0, 52, 0, 65, 0, 57, 0, 66, 0, 57, 0, 67, 0, 33, 0, 68, 0, 35, 0, 69, 0, 11, 0, 70, 0, 57, 0, 71, 0, 35, 0, 72, 0, 11, 0, 73, 0, 57, 0, 74, 0, 0, 0, 75, 0, 76, 0, 77, 0, 76, 0, 78, 0, 2, 0, 79, 0, 80, 0, 81, 0, 82, 0, 83, 0, 82, 0, 84, 0, 76, 0, 85, 0, 76, 0, 86, 0, 80, 0, 87, 0, 2, 0, 88, 0, 82, 0, 89, 0, 82, 0, 90, 0, 9, 0, 91, 0, 92, 0, 93, 0, 94, 0, 95, 0, 94, 0, 96, 0, 97, 0, 98, 0, 97, 0, 99, 0, 92, 0, 100, 0, 101, 0, 102, 0, 103, 0, 104, 0, 103, 0, 105, 0, 94, 0, 106, 0, 94, 0, 107, 0, 101, 0, 108, 0, 80, 0, 109, 0, 97, 0, 110, 0, 97, 0, 111, 0, 103, 0, 112, 0, 103, 0, 113, 0, 80, 0, 114, 0, 29, 0, 115, 0, 116, 0, 117, 0, 116, 0, 118, 0, 24, 0, 119, 0, 9, 0, 120, 0, 121, 0, 122, 0, 121, 0, 123, 0, 29, 0, 124, 0, 101, 0, 125, 0, 116, 0, 126, 0, 116, 0, 127, 0, 121, 0, 128, 0, 121, 0, 129, 0, 101, 0, 130, 0, 103, 0, 131, 0, 82, 0, 132, 0, 121, 0, 133, 0, 103, 0, 134, 0, 82, 0, 135, 0, 121, 0, 136, 0, 92, 0, 137, 0, 138, 0, 139, 0, 138, 0, 140, 0, 94, 0, 141, 0, 142, 0, 143, 0, 144, 0, 145, 0, 144, 0, 146, 0, 138, 0, 147, 0, 138, 0, 148, 0, 142, 0, 149, 0, 94, 0, 150, 0, 144, 0, 151, 0, 144, 0, 152, 0, 101, 0, 153, 0, 154, 0, 155, 0, 156, 0, 157, 0, 156, 0, 158, 0, 159, 0, 160, 0, 159, 0, 161, 0, 154, 0, 162, 0, 163, 0, 164, 0, 165, 0, 166, 0, 165, 0, 167, 0, 156, 0, 168, 0, 156, 0, 169, 0, 163, 0, 170, 0, 142, 0, 171, 0, 159, 0, 172, 0, 159, 0, 173, 0, 165, 0, 174, 0, 165, 0, 175, 0, 142, 0, 176, 0, 116, 0, 177, 0, 178, 0, 179, 0, 178, 0, 180, 0, 24, 0, 181, 0, 101, 0, 182, 0, 183, 0, 184, 0, 183, 0, 185, 0, 116, 0, 186, 0, 163, 0, 187, 0, 178, 0, 188, 0, 178, 0, 189, 0, 183, 0, 190, 0, 183, 0, 191, 0, 163, 0, 192, 0, 165, 0, 193, 0, 144, 0, 194, 0, 183, 0, 195, 0, 165, 0, 196, 0, 144, 0, 197, 0, 183, 0, 198, 0, 178, 0, 199, 0, 200, 0, 201, 0, 200, 0, 202, 0, 24, 0, 203, 0, 163, 0, 204, 0, 205, 0, 206, 0, 205, 0, 207, 0, 178, 0, 208, 0, 209, 0, 210, 0, 200, 0, 211, 0, 200, 0, 212, 0, 205, 0, 213, 0, 205, 0, 214, 0, 209, 0, 215, 0, 154, 0, 216, 0, 217, 0, 218, 0, 217, 0, 219, 0, 156, 0, 220, 0, 221, 0, 222, 0, 223, 0, 224, 0, 223, 0, 225, 0, 217, 0, 226, 0, 217, 0, 227, 0, 221, 0, 228, 0, 156, 0, 229, 0, 223, 0, 230, 0, 223, 0, 231, 0, 163, 0, 232, 0, 233, 0, 234, 0, 235, 0, 236, 0, 235, 0, 237, 0, 238, 0, 239, 0, 238, 0, 240, 0, 233, 0, 241, 0, 209, 0, 242, 0, 243, 0, 244, 0, 243, 0, 245, 0, 235, 0, 246, 0, 235, 0, 247, 0, 209, 0, 248, 0, 221, 0, 249, 0, 238, 0, 250, 0, 238, 0, 251, 0, 243, 0, 252, 0, 243, 0, 253, 0, 221, 0, 254, 0, 223, 0, 255, 0, 205, 0, 0, 1, 243, 0, 1, 1, 223, 0, 2, 1, 205, 0, 3, 1, 243, 0, 4, 1, 200, 0, 5, 1, 26, 0, 6, 1, 209, 0, 7, 1, 8, 1, 9, 1, 8, 1, 10, 1, 200, 0, 11, 1, 26, 0, 12, 1, 8, 1, 13, 1, 8, 1, 14, 1, 33, 0, 15, 1, 233, 0, 16, 1, 17, 1, 18, 1, 17, 1, 19, 1, 235, 0, 20, 1, 21, 1, 22, 1, 23, 1, 24, 1, 23, 1, 25, 1, 17, 1, 26, 1, 17, 1, 27, 1, 21, 1, 28, 1, 235, 0, 29, 1, 23, 1, 30, 1, 23, 1, 31, 1, 209, 0, 32, 1, 52, 0, 33, 1, 34, 1, 35, 1, 34, 1, 36, 1, 47, 0, 37, 1, 33, 0, 38, 1, 39, 1, 40, 1, 39, 1, 41, 1, 52, 0, 42, 1, 21, 1, 43, 1, 34, 1, 44, 1, 34, 1, 45, 1, 39, 1, 46, 1, 39, 1, 47, 1, 21, 1, 48, 1, 23, 1, 49, 1, 8, 1, 50, 1, 39, 1, 51, 1, 23, 1, 52, 1, 8, 1, 53, 1, 39, 1, 54, 1, 233, 0, 55, 1, 56, 1, 57, 1, 56, 1, 58, 1, 17, 1, 59, 1, 60, 1, 61, 1, 62, 1, 63, 1, 62, 1, 64, 1, 56, 1, 65, 1, 56, 1, 66, 1, 60, 1, 67, 1, 17, 1, 68, 1, 62, 1, 69, 1, 62, 1, 70, 1, 21, 1, 71, 1, 72, 1, 73, 1, 74, 1, 75, 1, 74, 1, 76, 1, 77, 1, 78, 1, 77, 1, 79, 1, 72, 1, 80, 1, 81, 1, 82, 1, 83, 1, 84, 1, 83, 1, 85, 1, 74, 1, 86, 1, 74, 1, 87, 1, 81, 1, 88, 1, 60, 1, 89, 1, 77, 1, 90, 1, 77, 1, 91, 1, 83, 1, 92, 1, 83, 1, 93, 1, 60, 1, 94, 1, 34, 1, 95, 1, 96, 1, 97, 1, 96, 1, 98, 1, 47, 0, 99, 1, 21, 1, 100, 1, 101, 1, 102, 1, 101, 1, 103, 1, 34, 1, 104, 1, 81, 1, 105, 1, 96, 1, 106, 1, 96, 1, 107, 1, 101, 1, 108, 1, 101, 1, 109, 1, 81, 1, 110, 1, 83, 1, 111, 1, 62, 1, 112, 1, 101, 1, 113, 1, 83, 1, 114, 1, 62, 1, 115, 1, 101, 1, 116, 1, 233, 0, 117, 1, 118, 1, 119, 1, 118, 1, 120, 1, 56, 1, 121, 1, 122, 1, 123, 1, 124, 1, 125, 1, 124, 1, 126, 1, 118, 1, 127, 1, 118, 1, 128, 1, 122, 1, 129, 1, 56, 1, 130, 1, 124, 1, 131, 1, 124, 1, 132, 1, 60, 1, 133, 1, 134, 1, 135, 1, 136, 1, 137, 1, 136, 1, 138, 1, 139, 1, 140, 1, 139, 1, 141, 1, 134, 1, 142, 1, 143, 1, 144, 1, 145, 1, 146, 1, 145, 1, 147, 1, 136, 1, 148, 1, 136, 1, 149, 1, 143, 1, 150, 1, 122, 1, 151, 1, 139, 1, 152, 1, 139, 1, 153, 1, 145, 1, 154, 1, 145, 1, 155, 1, 122, 1, 156, 1, 77, 1, 157, 1, 158, 1, 159, 1, 158, 1, 160, 1, 72, 1, 161, 1, 60, 1, 162, 1, 163, 1, 164, 1, 163, 1, 165, 1, 77, 1, 166, 1, 143, 1, 167, 1, 158, 1, 168, 1, 158, 1, 169, 1, 163, 1, 170, 1, 163, 1, 171, 1, 143, 1, 172, 1, 145, 1, 173, 1, 124, 1, 174, 1, 163, 1, 175, 1, 145, 1, 176, 1, 124, 1, 177, 1, 163, 1, 178, 1, 154, 0, 179, 1, 180, 1, 181, 1, 180, 1, 182, 1, 217, 0, 183, 1, 184, 1, 185, 1, 186, 1, 187, 1, 186, 1, 188, 1, 180, 1, 189, 1, 180, 1, 190, 1, 184, 1, 191, 1, 217, 0, 192, 1, 186, 1, 193, 1, 186, 1, 194, 1, 221, 0, 195, 1, 139, 1, 196, 1, 197, 1, 198, 1, 197, 1, 199, 1, 134, 1, 200, 1, 122, 1, 201, 1, 202, 1, 203, 1, 202, 1, 204, 1, 139, 1, 205, 1, 184, 1, 206, 1, 197, 1, 207, 1, 197, 1, 208, 1, 202, 1, 209, 1, 202, 1, 210, 1, 184, 1, 211, 1, 238, 0, 212, 1, 118, 1, 213, 1, 221, 0, 214, 1, 215, 1, 216, 1, 215, 1, 217, 1, 238, 0, 218, 1, 118, 1, 219, 1, 215, 1, 220, 1, 215, 1, 221, 1, 122, 1, 222, 1, 202, 1, 223, 1, 186, 1, 224, 1, 215, 1, 225, 1, 202, 1, 226, 1, 186, 1, 227, 1, 215, 1, 228, 1, 154, 0, 229, 1, 230, 1, 231, 1, 230, 1, 232, 1, 180, 1, 233, 1, 234, 1, 235, 1, 236, 1, 237, 1, 236, 1, 238, 1, 230, 1, 239, 1, 230, 1, 240, 1, 234, 1, 241, 1, 180, 1, 242, 1, 236, 1, 243, 1, 236, 1, 244, 1, 184, 1, 245, 1, 246, 1, 247, 1, 248, 1, 249, 1, 248, 1, 250, 1, 251, 1, 252, 1, 251, 1, 253, 1, 246, 1, 254, 1, 255, 1, 0, 2, 1, 2, 2, 2, 1, 2, 3, 2, 248, 1, 4, 2, 248, 1, 5, 2, 255, 1, 6, 2, 234, 1, 7, 2, 251, 1, 8, 2, 251, 1, 9, 2, 1, 2, 10, 2, 1, 2, 11, 2, 234, 1, 12, 2, 197, 1, 13, 2, 14, 2, 15, 2, 14, 2, 16, 2, 134, 1, 17, 2, 184, 1, 18, 2, 19, 2, 20, 2, 19, 2, 21, 2, 197, 1, 22, 2, 255, 1, 23, 2, 14, 2, 24, 2, 14, 2, 25, 2, 19, 2, 26, 2, 19, 2, 27, 2, 255, 1, 28, 2, 1, 2, 29, 2, 236, 1, 30, 2, 19, 2, 31, 2, 1, 2, 32, 2, 236, 1, 33, 2, 19, 2, 34, 2, 246, 1, 35, 2, 36, 2, 37, 2, 36, 2, 38, 2, 248, 1, 39, 2, 40, 2, 41, 2, 42, 2, 43, 2, 42, 2, 44, 2, 36, 2, 45, 2, 36, 2, 46, 2, 40, 2, 47, 2, 248, 1, 48, 2, 42, 2, 49, 2, 42, 2, 50, 2, 255, 1, 51, 2, 52, 2, 53, 2, 54, 2, 55, 2, 54, 2, 56, 2, 57, 2, 58, 2, 57, 2, 59, 2, 52, 2, 60, 2, 61, 2, 62, 2, 63, 2, 64, 2, 63, 2, 65, 2, 54, 2, 66, 2, 54, 2, 67, 2, 61, 2, 68, 2, 40, 2, 69, 2, 57, 2, 70, 2, 57, 2, 71, 2, 63, 2, 72, 2, 63, 2, 73, 2, 40, 2, 74, 2, 14, 2, 75, 2, 76, 2, 77, 2, 76, 2, 78, 2, 134, 1, 79, 2, 255, 1, 80, 2, 81, 2, 82, 2, 81, 2, 83, 2, 14, 2, 84, 2, 61, 2, 85, 2, 76, 2, 86, 2, 76, 2, 87, 2, 81, 2, 88, 2, 81, 2, 89, 2, 61, 2, 90, 2, 63, 2, 91, 2, 42, 2, 92, 2, 81, 2, 93, 2, 63, 2, 94, 2, 42, 2, 95, 2, 81, 2, 96, 2, 52, 2, 97, 2, 98, 2, 99, 2, 98, 2, 100, 2, 54, 2, 101, 2, 102, 2, 103, 2, 104, 2, 105, 2, 104, 2, 106, 2, 98, 2, 107, 2, 98, 2, 108, 2, 102, 2, 109, 2, 54, 2, 110, 2, 104, 2, 111, 2, 104, 2, 112, 2, 61, 2, 113, 2, 158, 1, 114, 2, 115, 2, 116, 2, 115, 2, 117, 2, 72, 1, 118, 2, 143, 1, 119, 2, 120, 2, 121, 2, 120, 2, 122, 2, 158, 1, 123, 2, 102, 2, 124, 2, 115, 2, 125, 2, 115, 2, 126, 2, 120, 2, 127, 2, 120, 2, 128, 2, 102, 2, 129, 2, 76, 2, 130, 2, 136, 1, 131, 2, 61, 2, 132, 2, 133, 2, 134, 2, 133, 2, 135, 2, 76, 2, 136, 2, 136, 1, 137, 2, 133, 2, 138, 2, 133, 2, 139, 2, 143, 1, 140, 2, 120, 2, 141, 2, 104, 2, 142, 2, 133, 2, 143, 2, 120, 2, 144, 2, 104, 2, 145, 2, 133, 2, 146, 2, 52, 2, 147, 2, 148, 2, 149, 2, 148, 2, 150, 2, 98, 2, 151, 2, 152, 2, 153, 2, 154, 2, 155, 2, 154, 2, 156, 2, 148, 2, 157, 2, 148, 2, 158, 2, 152, 2, 159, 2, 98, 2, 160, 2, 154, 2, 161, 2, 154, 2, 162, 2, 102, 2, 163, 2, 164, 2, 165, 2, 166, 2, 167, 2, 166, 2, 168, 2, 169, 2, 170, 2, 169, 2, 171, 2, 164, 2, 172, 2, 173, 2, 174, 2, 175, 2, 176, 2, 175, 2, 177, 2, 166, 2, 178, 2, 166, 2, 179, 2, 173, 2, 180, 2, 152, 2, 181, 2, 169, 2, 182, 2, 169, 2, 183, 2, 175, 2, 184, 2, 175, 2, 185, 2, 152, 2, 186, 2, 115, 2, 187, 2, 188, 2, 189, 2, 188, 2, 190, 2, 72, 1, 191, 2, 102, 2, 192, 2, 193, 2, 194, 2, 193, 2, 195, 2, 115, 2, 196, 2, 173, 2, 197, 2, 188, 2, 198, 2, 188, 2, 199, 2, 193, 2, 200, 2, 193, 2, 201, 2, 173, 2, 202, 2, 175, 2, 203, 2, 154, 2, 204, 2, 193, 2, 205, 2, 175, 2, 206, 2, 154, 2, 207, 2, 193, 2, 208, 2, 52, 2, 209, 2, 210, 2, 211, 2, 210, 2, 212, 2, 148, 2, 213, 2, 214, 2, 215, 2, 216, 2, 217, 2, 216, 2, 218, 2, 210, 2, 219, 2, 210, 2, 220, 2, 214, 2, 221, 2, 148, 2, 222, 2, 216, 2, 223, 2, 216, 2, 224, 2, 152, 2, 225, 2, 226, 2, 227, 2, 228, 2, 229, 2, 228, 2, 230, 2, 231, 2, 232, 2, 231, 2, 233, 2, 226, 2, 234, 2, 235, 2, 236, 2, 237, 2, 238, 2, 237, 2, 239, 2, 228, 2, 240, 2, 228, 2, 241, 2, 235, 2, 242, 2, 214, 2, 243, 2, 231, 2, 244, 2, 231, 2, 245, 2, 237, 2, 246, 2, 237, 2, 247, 2, 214, 2, 248, 2, 169, 2, 249, 2, 250, 2, 251, 2, 250, 2, 252, 2, 164, 2, 253, 2, 152, 2, 254, 2, 255, 2, 0, 3, 255, 2, 1, 3, 169, 2, 2, 3, 235, 2, 3, 3, 250, 2, 4, 3, 250, 2, 5, 3, 255, 2, 6, 3, 255, 2, 7, 3, 235, 2, 8, 3, 237, 2, 9, 3, 216, 2, 10, 3, 255, 2, 11, 3, 237, 2, 12, 3, 216, 2, 13, 3, 255, 2, 14, 3, 226, 2, 15, 3, 16, 3, 17, 3, 16, 3, 18, 3, 228, 2, 19, 3, 20, 3, 21, 3, 22, 3, 23, 3, 22, 3, 24, 3, 16, 3, 25, 3, 16, 3, 26, 3, 20, 3, 27, 3, 228, 2, 28, 3, 22, 3, 29, 3, 22, 3, 30, 3, 235, 2, 31, 3, 0, 0, 32, 3, 33, 3, 34, 3, 33, 3, 35, 3, 36, 3, 37, 3, 36, 3, 38, 3, 0, 0, 39, 3, 40, 3, 41, 3, 42, 3, 43, 3, 42, 3, 44, 3, 33, 3, 45, 3, 33, 3, 46, 3, 40, 3, 47, 3, 20, 3, 48, 3, 36, 3, 49, 3, 36, 3, 50, 3, 42, 3, 51, 3, 42, 3, 52, 3, 20, 3, 53, 3, 250, 2, 54, 3, 55, 3, 56, 3, 55, 3, 57, 3, 164, 2, 58, 3, 235, 2, 59, 3, 60, 3, 61, 3, 60, 3, 62, 3, 250, 2, 63, 3, 40, 3, 64, 3, 55, 3, 65, 3, 55, 3, 66, 3, 60, 3, 67, 3, 60, 3, 68, 3, 40, 3, 69, 3, 42, 3, 70, 3, 22, 3, 71, 3, 60, 3, 72, 3, 42, 3, 73, 3, 22, 3, 74, 3, 60, 3, 75, 3, 5, 0, 76, 3, 33, 3, 77, 3, 17, 0, 78, 3, 79, 3, 80, 3, 79, 3, 81, 3, 5, 0, 82, 3, 33, 3, 83, 3, 79, 3, 84, 3, 79, 3, 85, 3, 40, 3, 86, 3, 47, 0, 87, 3, 88, 3, 89, 3, 88, 3, 90, 3, 49, 0, 91, 3, 92, 3, 93, 3, 94, 3, 95, 3, 94, 3, 96, 3, 88, 3, 97, 3, 88, 3, 98, 3, 92, 3, 99, 3, 49, 0, 100, 3, 94, 3, 101, 3, 94, 3, 102, 3, 17, 0, 103, 3, 55, 3, 104, 3, 105, 3, 106, 3, 105, 3, 107, 3, 164, 2, 108, 3, 40, 3, 109, 3, 110, 3, 111, 3, 110, 3, 112, 3, 55, 3, 113, 3, 92, 3, 114, 3, 105, 3, 115, 3, 105, 3, 116, 3, 110, 3, 117, 3, 110, 3, 118, 3, 92, 3, 119, 3, 94, 3, 120, 3, 79, 3, 121, 3, 110, 3, 122, 3, 94, 3, 123, 3, 79, 3, 124, 3, 110, 3, 125, 3, 105, 3, 126, 3, 166, 2, 127, 3, 92, 3, 128, 3, 129, 3, 130, 3, 129, 3, 131, 3, 105, 3, 132, 3, 166, 2, 133, 3, 129, 3, 134, 3, 129, 3, 135, 3, 173, 2, 136, 3, 96, 1, 137, 3, 88, 3, 138, 3, 81, 1, 139, 3, 140, 3, 141, 3, 140, 3, 142, 3, 96, 1, 143, 3, 88, 3, 144, 3, 140, 3, 145, 3, 140, 3, 146, 3, 92, 3, 147, 3, 188, 2, 148, 3, 74, 1, 149, 3, 173, 2, 150, 3, 151, 3, 152, 3, 151, 3, 153, 3, 188, 2, 154, 3, 74, 1, 155, 3, 151, 3, 156, 3, 151, 3, 157, 3, 81, 1, 158, 3, 140, 3, 159, 3, 129, 3, 160, 3, 151, 3, 161, 3, 140, 3, 162, 3, 129, 3, 163, 3, 151, 3, 164, 3, 97, 0, 165, 3, 166, 3, 167, 3, 166, 3, 168, 3, 92, 0, 169, 3, 80, 0, 170, 3, 171, 3, 172, 3, 171, 3, 173, 3, 97, 0, 174, 3, 175, 3, 176, 3, 166, 3, 177, 3, 166, 3, 178, 3, 171, 3, 179, 3, 171, 3, 180, 3, 175, 3, 181, 3, 36, 3, 182, 3, 76, 0, 183, 3, 20, 3, 184, 3, 185, 3, 186, 3, 185, 3, 187, 3, 36, 3, 188, 3, 76, 0, 189, 3, 185, 3, 190, 3, 185, 3, 191, 3, 80, 0, 192, 3, 226, 2, 193, 3, 194, 3, 195, 3, 194, 3, 196, 3, 16, 3, 197, 3, 175, 3, 198, 3, 199, 3, 200, 3, 199, 3, 201, 3, 194, 3, 202, 3, 194, 3, 203, 3, 175, 3, 204, 3, 16, 3, 205, 3, 199, 3, 206, 3, 199, 3, 207, 3, 20, 3, 208, 3, 185, 3, 209, 3, 171, 3, 210, 3, 199, 3, 211, 3, 185, 3, 212, 3, 171, 3, 213, 3, 199, 3, 214, 3, 166, 3, 215, 3, 216, 3, 217, 3, 216, 3, 218, 3, 92, 0, 219, 3, 175, 3, 220, 3, 221, 3, 222, 3, 221, 3, 223, 3, 166, 3, 224, 3, 225, 3, 226, 3, 216, 3, 227, 3, 216, 3, 228, 3, 221, 3, 229, 3, 221, 3, 230, 3, 225, 3, 231, 3, 226, 2, 232, 3, 233, 3, 234, 3, 233, 3, 235, 3, 194, 3, 236, 3, 237, 3, 238, 3, 239, 3, 240, 3, 239, 3, 241, 3, 233, 3, 242, 3, 233, 3, 243, 3, 237, 3, 244, 3, 194, 3, 245, 3, 239, 3, 246, 3, 239, 3, 247, 3, 175, 3, 248, 3, 246, 1, 249, 3, 250, 3, 251, 3, 250, 3, 252, 3, 253, 3, 254, 3, 253, 3, 255, 3, 246, 1, 0, 4, 225, 3, 1, 4, 2, 4, 3, 4, 2, 4, 4, 4, 250, 3, 5, 4, 250, 3, 6, 4, 225, 3, 7, 4, 237, 3, 8, 4, 253, 3, 9, 4, 253, 3, 10, 4, 2, 4, 11, 4, 2, 4, 12, 4, 237, 3, 13, 4, 239, 3, 14, 4, 221, 3, 15, 4, 2, 4, 16, 4, 239, 3, 17, 4, 221, 3, 18, 4, 2, 4, 19, 4, 216, 3, 20, 4, 138, 0, 21, 4, 225, 3, 22, 4, 23, 4, 24, 4, 23, 4, 25, 4, 216, 3, 26, 4, 138, 0, 27, 4, 23, 4, 28, 4, 23, 4, 29, 4, 142, 0, 30, 4, 251, 1, 31, 4, 250, 3, 32, 4, 234, 1, 33, 4, 34, 4, 35, 4, 34, 4, 36, 4, 251, 1, 37, 4, 250, 3, 38, 4, 34, 4, 39, 4, 34, 4, 40, 4, 225, 3, 41, 4, 159, 0, 42, 4, 230, 1, 43, 4, 142, 0, 44, 4, 45, 4, 46, 4, 45, 4, 47, 4, 159, 0, 48, 4, 230, 1, 49, 4, 45, 4, 50, 4, 45, 4, 51, 4, 234, 1, 52, 4, 34, 4, 53, 4, 23, 4, 54, 4, 45, 4, 55, 4, 34, 4, 56, 4, 23, 4, 57, 4, 45, 4, 58, 4, 57, 2, 59, 4, 210, 2, 60, 4, 40, 2, 61, 4, 62, 4, 63, 4, 62, 4, 64, 4, 57, 2, 65, 4, 210, 2, 66, 4, 62, 4, 67, 4, 62, 4, 68, 4, 214, 2, 69, 4, 253, 3, 70, 4, 36, 2, 71, 4, 237, 3, 72, 4, 73, 4, 74, 4, 73, 4, 75, 4, 253, 3, 76, 4, 36, 2, 77, 4, 73, 4, 78, 4, 73, 4, 79, 4, 40, 2, 80, 4, 231, 2, 81, 4, 233, 3, 82, 4, 214, 2, 83, 4, 84, 4, 85, 4, 84, 4, 86, 4, 231, 2, 87, 4, 233, 3, 88, 4, 84, 4, 89, 4, 84, 4, 90, 4, 237, 3, 91, 4, 73, 4, 92, 4, 62, 4, 93, 4, 84, 4, 94, 4, 73, 4, 95, 4, 62, 4, 96, 4, 84, 4, 97, 4 ),
"blend_shape_data": [  ],
"format": 97537,
"index_count": 1920,
"primitive": 1,
"skeleton_aabb": [  ],
"vertex_count": 1122
}

